Board Information Report
Filename     : F:\Match\Racing robot\AD\PCB1.PcbDoc
Date         : 2015/10/30
Time         : 22:38:23
Time Elapsed : 00:00:00

Routing Information
    Routing completion, 100.00%
    Connections, 207
    Connections routed, 207
    Connections remaining, 0
count : 4