.LOG

22:49 2014/1/6
将lin的代码移植到新的PCB上。测试ok
21:38 2014/1/13
完成三台车的调试，ok
新的电调
20:27 2014/1/14
为内测备准备好的参数。
22:28 2014/1/16
速度环pd+位置环pid，为三号大脚车云台调试参数
16:03 2014/1/18
开枪不用mpu6050，码盘求得的数度精度不高，可以用来做位置环，做速度环还是mpu6050较好。
为内测3#车调好参数
16:21 2014/1/22
4#车参数调大，mpu安装位置做了调整
22:10 2014/1/22
为2#车调参
10:55 2014/1/27
加入鼠标控制
20:31 2014/1/28
打枪采用编码器求得速度，滤波后送入速度环来控制，效果较好，参数：10组滤波，600；
20:45 2014/1/28
开枪的时候将mpu6050的数据滤波后送入速度环，控制效果不如采用编码器来控的。不过还可以接受
15:33 2014/2/18
发现编码器求速度控，长时间开枪会低头，但是用mpu6050的控制不会低头，但是会很抖。
21:13 2014/2/18
修正pitch轴速度环的bug，开枪时使用编码器控制，10组滤波+600的参数较好。
22:27 2014/2/20
晚上云台的枪的控制出错，一直开枪，程序中将[5]通道的开枪判断加强，确保ok
14:55 2014/3/11
新的电机的转动的方向是反的～控制效果不好，电机tata响
18:01 2014/3/20
鹏哥新电机程序，output反向，mpu6050的更新频率设置为1khz，提高了鼠标的灵敏度。优化pid参数。
16:52 2015/4/4
实验室的板子晶振频率为8MHz 历程上的为 25MHz ,
需要修改宏定义：
#define HSE_VALUE    ((uint32_t)8000000) 
#define HSI_VALUE    ((uint32_t)16000000)//不需要改动了
用于解决串口通信乱码问题
10:42 2015/4/5
发现遥控器接收解码程序接出的数来回跳动不稳定，怀疑是通信速率问题或者解码程序不匹配
更换晶振后串口通信无法正常通信，无法通过修改宏定义来解决，怀疑是晶振电路所需电容不匹配