Added Component: Designator=C1(0805)
Added Component: Designator=C2(0805)
Added Component: Designator=C3(0805)
Added Component: Designator=C4(0805)
Added Component: Designator=C5(0805)
Added Component: Designator=C6(0805)
Added Component: Designator=C7(0805)
Added Component: Designator=C8(0805)
Added Component: Designator=C9(0805)
Added Component: Designator=C10(0805)
Added Component: Designator=C11(0805)
Added Component: Designator=C12(0805)
Added Component: Designator=C13(0805)
Added Component: Designator=C14(0805)
Added Component: Designator=C15(0805)
Added Component: Designator=C16(0805)
Added Component: Designator=C17(0805)
Added Component: Designator=C18(0805)
Added Component: Designator=C19(0805)
Added Component: Designator=C20(0805)
Added Component: Designator=D1(D-1N4148)
Added Component: Designator=D2(D-1N4148)
Added Component: Designator=D3(D-1N4148)
Added Component: Designator=D4(D-1N4148)
Added Component: Designator=D5(D-1N4148)
Added Component: Designator=D6(D-1N4148)
Added Component: Designator=DS1(D-1N4148)
Added Component: Designator=DS2(D-1N4148)
Added Component: Designator=Key1(PUSHSW)
Added Component: Designator=L1(L-7*7)
Added Component: Designator=L2(L-7*7)
Added Component: Designator=L3(L-7*7)
Added Component: Designator=P1(HDR1X4)
Added Component: Designator=P2(HDR1X5)
Added Component: Designator=P3(HDR1X4)
Added Component: Designator=P4(HDR1X3)
Added Component: Designator=P5(HDR1X3)
Added Component: Designator=P6(HDR1X3)
Added Component: Designator=P7(HDR1X3)
Added Component: Designator=P8(HDR1X3)
Added Component: Designator=P9(HDR1X5)
Added Component: Designator=P10(HDR1X3)
Added Component: Designator=P11(HDR1X3)
Added Component: Designator=P12(HDR1X3)
Added Component: Designator=P13(HDR1X3)
Added Component: Designator=P14(HDR1X3)
Added Component: Designator=P15(HDR1X2)
Added Component: Designator=P16(HDR1X3)
Added Component: Designator=P17(HDR1X3)
Added Component: Designator=P18(HDR1X3)
Added Component: Designator=P19(HDR1X3)
Added Component: Designator=P20(HDR1X3)
Added Component: Designator=P21(HDR1X3)
Added Component: Designator=P22(HDR1X3)
Added Component: Designator=P23(HDR1X3)
Added Component: Designator=P24(HDR1X3)
Added Component: Designator=R1(0805)
Added Component: Designator=R2(0805)
Added Component: Designator=R3(0805)
Added Component: Designator=R4(0805)
Added Component: Designator=R5(0805)
Added Component: Designator=R6(0805)
Added Component: Designator=R7(0805)
Added Component: Designator=R8(0805)
Added Component: Designator=R9(0805)
Added Component: Designator=R10(0805)
Added Component: Designator=R11(0805)
Added Component: Designator=R12(0805)
Added Component: Designator=R13(0805)
Added Component: Designator=R14(0805)
Added Component: Designator=R15(0805)
Added Component: Designator=R16(0805)
Added Component: Designator=S*1(boat_swtich)
Added Component: Designator=U1(SOP-8)
Added Component: Designator=U2(LQFP100)
Added Component: Designator=U3(SOP-8)
Added Component: Designator=U4(SOP-8)
Added Component: Designator=U5(SPX1117M)
Added Component: Designator=U6(SPX1117M)
Added Component: Designator=Y1(XTAL_US)
Added Pin To Net: NetName=1VCC6.0 Pin=C1-1
Added Pin To Net: NetName=1VCC6.0 Pin=C4-1
Added Pin To Net: NetName=1VCC6.0 Pin=L1-2
Added Pin To Net: NetName=1VCC6.0 Pin=P16-2
Added Pin To Net: NetName=1VCC6.0 Pin=P17-2
Added Pin To Net: NetName=1VCC6.0 Pin=P18-2
Added Pin To Net: NetName=1VCC6.0 Pin=P19-2
Added Pin To Net: NetName=1VCC6.0 Pin=P20-2
Added Pin To Net: NetName=1VCC6.0 Pin=P21-2
Added Pin To Net: NetName=1VCC6.0 Pin=R1-1
Added Net: Name=1VCC6.0
Added Pin To Net: NetName=2VCC6.0 Pin=C6-1
Added Pin To Net: NetName=2VCC6.0 Pin=C7-1
Added Pin To Net: NetName=2VCC6.0 Pin=L2-2
Added Pin To Net: NetName=2VCC6.0 Pin=P10-2
Added Pin To Net: NetName=2VCC6.0 Pin=P11-2
Added Pin To Net: NetName=2VCC6.0 Pin=P12-2
Added Pin To Net: NetName=2VCC6.0 Pin=P13-2
Added Pin To Net: NetName=2VCC6.0 Pin=P14-2
Added Pin To Net: NetName=2VCC6.0 Pin=R4-1
Added Net: Name=2VCC6.0
Added Pin To Net: NetName=3VCC6.0 Pin=C10-1
Added Pin To Net: NetName=3VCC6.0 Pin=C11-1
Added Pin To Net: NetName=3VCC6.0 Pin=L3-2
Added Pin To Net: NetName=3VCC6.0 Pin=P4-2
Added Pin To Net: NetName=3VCC6.0 Pin=P5-2
Added Pin To Net: NetName=3VCC6.0 Pin=P6-2
Added Pin To Net: NetName=3VCC6.0 Pin=P7-2
Added Pin To Net: NetName=3VCC6.0 Pin=P8-2
Added Pin To Net: NetName=3VCC6.0 Pin=R10-1
Added Net: Name=3VCC6.0
Added Pin To Net: NetName=A0 Pin=P9-3
Added Pin To Net: NetName=A0 Pin=U2-18
Added Net: Name=A0
Added Pin To Net: NetName=BOOT0 Pin=R7-2
Added Pin To Net: NetName=BOOT0 Pin=U2-94
Added Net: Name=BOOT0
Added Pin To Net: NetName=BOOT1 Pin=R5-2
Added Pin To Net: NetName=BOOT1 Pin=U2-37
Added Net: Name=BOOT1
Added Pin To Net: NetName=BUTTERIN Pin=P15-2
Added Pin To Net: NetName=BUTTERIN Pin=S*1-0
Added Net: Name=BUTTERIN
Added Pin To Net: NetName=BUTTER Pin=C5-2
Added Pin To Net: NetName=BUTTER Pin=C8-2
Added Pin To Net: NetName=BUTTER Pin=C12-2
Added Pin To Net: NetName=BUTTER Pin=D4-2
Added Pin To Net: NetName=BUTTER Pin=D5-1
Added Pin To Net: NetName=BUTTER Pin=R3-1
Added Pin To Net: NetName=BUTTER Pin=R8-1
Added Pin To Net: NetName=BUTTER Pin=R12-1
Added Pin To Net: NetName=BUTTER Pin=S*1-1
Added Pin To Net: NetName=BUTTER Pin=U1-2
Added Pin To Net: NetName=BUTTER Pin=U1-4
Added Pin To Net: NetName=BUTTER Pin=U3-2
Added Pin To Net: NetName=BUTTER Pin=U3-4
Added Pin To Net: NetName=BUTTER Pin=U4-2
Added Pin To Net: NetName=BUTTER Pin=U4-4
Added Net: Name=BUTTER
Added Pin To Net: NetName=CLK Pin=P9-4
Added Pin To Net: NetName=CLK Pin=U2-17
Added Net: Name=CLK
Added Pin To Net: NetName=GND Pin=C1-2
Added Pin To Net: NetName=GND Pin=C2-2
Added Pin To Net: NetName=GND Pin=C3-2
Added Pin To Net: NetName=GND Pin=C4-2
Added Pin To Net: NetName=GND Pin=C5-1
Added Pin To Net: NetName=GND Pin=C6-2
Added Pin To Net: NetName=GND Pin=C7-2
Added Pin To Net: NetName=GND Pin=C8-1
Added Pin To Net: NetName=GND Pin=C9-1
Added Pin To Net: NetName=GND Pin=C10-2
Added Pin To Net: NetName=GND Pin=C11-2
Added Pin To Net: NetName=GND Pin=C12-1
Added Pin To Net: NetName=GND Pin=C13-1
Added Pin To Net: NetName=GND Pin=C14-1
Added Pin To Net: NetName=GND Pin=C15-1
Added Pin To Net: NetName=GND Pin=C19-1
Added Pin To Net: NetName=GND Pin=C20-1
Added Pin To Net: NetName=GND Pin=D1-1
Added Pin To Net: NetName=GND Pin=D2-1
Added Pin To Net: NetName=GND Pin=D3-1
Added Pin To Net: NetName=GND Pin=DS1-2
Added Pin To Net: NetName=GND Pin=DS2-2
Added Pin To Net: NetName=GND Pin=Key1-2
Added Pin To Net: NetName=GND Pin=Key1-2
Added Pin To Net: NetName=GND Pin=P1-1
Added Pin To Net: NetName=GND Pin=P3-3
Added Pin To Net: NetName=GND Pin=P4-3
Added Pin To Net: NetName=GND Pin=P5-3
Added Pin To Net: NetName=GND Pin=P6-3
Added Pin To Net: NetName=GND Pin=P7-3
Added Pin To Net: NetName=GND Pin=P8-3
Added Pin To Net: NetName=GND Pin=P9-1
Added Pin To Net: NetName=GND Pin=P10-3
Added Pin To Net: NetName=GND Pin=P11-3
Added Pin To Net: NetName=GND Pin=P12-3
Added Pin To Net: NetName=GND Pin=P13-3
Added Pin To Net: NetName=GND Pin=P14-3
Added Pin To Net: NetName=GND Pin=P15-1
Added Pin To Net: NetName=GND Pin=P16-3
Added Pin To Net: NetName=GND Pin=P17-3
Added Pin To Net: NetName=GND Pin=P18-3
Added Pin To Net: NetName=GND Pin=P19-3
Added Pin To Net: NetName=GND Pin=P20-3
Added Pin To Net: NetName=GND Pin=P21-3
Added Pin To Net: NetName=GND Pin=P22-1
Added Pin To Net: NetName=GND Pin=P22-2
Added Pin To Net: NetName=GND Pin=P22-3
Added Pin To Net: NetName=GND Pin=R2-1
Added Pin To Net: NetName=GND Pin=R5-1
Added Pin To Net: NetName=GND Pin=R6-1
Added Pin To Net: NetName=GND Pin=R7-1
Added Pin To Net: NetName=GND Pin=R11-1
Added Pin To Net: NetName=GND Pin=R13-2
Added Pin To Net: NetName=GND Pin=R16-1
Added Pin To Net: NetName=GND Pin=U1-7
Added Pin To Net: NetName=GND Pin=U1-8
Added Pin To Net: NetName=GND Pin=U2-10
Added Pin To Net: NetName=GND Pin=U2-27
Added Pin To Net: NetName=GND Pin=U2-49
Added Pin To Net: NetName=GND Pin=U2-74
Added Pin To Net: NetName=GND Pin=U2-99
Added Pin To Net: NetName=GND Pin=U3-7
Added Pin To Net: NetName=GND Pin=U3-8
Added Pin To Net: NetName=GND Pin=U4-7
Added Pin To Net: NetName=GND Pin=U4-8
Added Pin To Net: NetName=GND Pin=U5-1
Added Pin To Net: NetName=GND Pin=U6-1
Added Net: Name=GND
Added Pin To Net: NetName=LED Pin=DS2-1
Added Pin To Net: NetName=LED Pin=U2-87
Added Net: Name=LED
Added Pin To Net: NetName=NetC13_2 Pin=C13-2
Added Pin To Net: NetName=NetC13_2 Pin=D5-2
Added Pin To Net: NetName=NetC13_2 Pin=U5-3
Added Net: Name=NetC13_2
Added Pin To Net: NetName=NetD1_2 Pin=D1-2
Added Pin To Net: NetName=NetD1_2 Pin=L1-1
Added Pin To Net: NetName=NetD1_2 Pin=U1-5
Added Pin To Net: NetName=NetD1_2 Pin=U1-6
Added Net: Name=NetD1_2
Added Pin To Net: NetName=NetD2_2 Pin=D2-2
Added Pin To Net: NetName=NetD2_2 Pin=L2-1
Added Pin To Net: NetName=NetD2_2 Pin=U3-5
Added Pin To Net: NetName=NetD2_2 Pin=U3-6
Added Net: Name=NetD2_2
Added Pin To Net: NetName=NetD3_2 Pin=D3-2
Added Pin To Net: NetName=NetD3_2 Pin=L3-1
Added Pin To Net: NetName=NetD3_2 Pin=U4-5
Added Pin To Net: NetName=NetD3_2 Pin=U4-6
Added Net: Name=NetD3_2
Added Pin To Net: NetName=NetD4_1 Pin=D4-1
Added Pin To Net: NetName=NetD4_1 Pin=R13-1
Added Net: Name=NetD4_1
Added Pin To Net: NetName=NetD6_2 Pin=D6-2
Added Pin To Net: NetName=NetD6_2 Pin=U6-3
Added Net: Name=NetD6_2
Added Pin To Net: NetName=NetDS1_1 Pin=DS1-1
Added Pin To Net: NetName=NetDS1_1 Pin=R14-2
Added Net: Name=NetDS1_1
Added Pin To Net: NetName=NetP2_1 Pin=P2-1
Added Pin To Net: NetName=NetP2_1 Pin=U2-97
Added Net: Name=NetP2_1
Added Pin To Net: NetName=NetP2_2 Pin=P2-2
Added Pin To Net: NetName=NetP2_2 Pin=U2-98
Added Net: Name=NetP2_2
Added Pin To Net: NetName=NetP2_3 Pin=P2-3
Added Pin To Net: NetName=NetP2_3 Pin=U2-1
Added Net: Name=NetP2_3
Added Pin To Net: NetName=NetP2_4 Pin=P2-4
Added Pin To Net: NetName=NetP2_4 Pin=U2-2
Added Net: Name=NetP2_4
Added Pin To Net: NetName=NetP2_5 Pin=P2-5
Added Pin To Net: NetName=NetP2_5 Pin=U2-3
Added Net: Name=NetP2_5
Added Pin To Net: NetName=NetR1_2 Pin=R1-2
Added Pin To Net: NetName=NetR1_2 Pin=R2-2
Added Pin To Net: NetName=NetR1_2 Pin=U1-1
Added Net: Name=NetR1_2
Added Pin To Net: NetName=NetR3_2 Pin=R3-2
Added Pin To Net: NetName=NetR3_2 Pin=U1-3
Added Net: Name=NetR3_2
Added Pin To Net: NetName=NetR4_2 Pin=R4-2
Added Pin To Net: NetName=NetR4_2 Pin=R6-2
Added Pin To Net: NetName=NetR4_2 Pin=U3-1
Added Net: Name=NetR4_2
Added Pin To Net: NetName=NetR8_2 Pin=R8-2
Added Pin To Net: NetName=NetR8_2 Pin=U3-3
Added Net: Name=NetR8_2
Added Pin To Net: NetName=NetR10_2 Pin=R10-2
Added Pin To Net: NetName=NetR10_2 Pin=R11-2
Added Pin To Net: NetName=NetR10_2 Pin=U4-1
Added Net: Name=NetR10_2
Added Pin To Net: NetName=NetR12_2 Pin=R12-2
Added Pin To Net: NetName=NetR12_2 Pin=U4-3
Added Net: Name=NetR12_2
Added Pin To Net: NetName=NRST Pin=C9-2
Added Pin To Net: NetName=NRST Pin=Key1-1
Added Pin To Net: NetName=NRST Pin=Key1-1
Added Pin To Net: NetName=NRST Pin=R9-2
Added Pin To Net: NetName=NRST Pin=U2-14
Added Net: Name=NRST
Added Pin To Net: NetName=OSC_IN Pin=C3-1
Added Pin To Net: NetName=OSC_IN Pin=U2-12
Added Pin To Net: NetName=OSC_IN Pin=Y1-2
Added Net: Name=OSC_IN
Added Pin To Net: NetName=OSC_OUT Pin=C2-1
Added Pin To Net: NetName=OSC_OUT Pin=U2-13
Added Pin To Net: NetName=OSC_OUT Pin=Y1-1
Added Net: Name=OSC_OUT
Added Pin To Net: NetName=PWM1 Pin=P4-1
Added Pin To Net: NetName=PWM1 Pin=U2-23
Added Net: Name=PWM1
Added Pin To Net: NetName=PWM2 Pin=P5-1
Added Pin To Net: NetName=PWM2 Pin=U2-24
Added Net: Name=PWM2
Added Pin To Net: NetName=PWM3 Pin=P6-1
Added Pin To Net: NetName=PWM3 Pin=U2-25
Added Net: Name=PWM3
Added Pin To Net: NetName=PWM4 Pin=P7-1
Added Pin To Net: NetName=PWM4 Pin=U2-26
Added Net: Name=PWM4
Added Pin To Net: NetName=PWM5 Pin=P8-1
Added Pin To Net: NetName=PWM5 Pin=U2-77
Added Net: Name=PWM5
Added Pin To Net: NetName=PWM6 Pin=P10-1
Added Pin To Net: NetName=PWM6 Pin=U2-89
Added Net: Name=PWM6
Added Pin To Net: NetName=PWM7 Pin=P11-1
Added Pin To Net: NetName=PWM7 Pin=U2-92
Added Net: Name=PWM7
Added Pin To Net: NetName=PWM8 Pin=P12-1
Added Pin To Net: NetName=PWM8 Pin=U2-93
Added Net: Name=PWM8
Added Pin To Net: NetName=PWM9 Pin=P13-1
Added Pin To Net: NetName=PWM9 Pin=U2-95
Added Net: Name=PWM9
Added Pin To Net: NetName=PWM10 Pin=P14-1
Added Pin To Net: NetName=PWM10 Pin=U2-96
Added Net: Name=PWM10
Added Pin To Net: NetName=PWM11 Pin=P16-1
Added Pin To Net: NetName=PWM11 Pin=U2-47
Added Net: Name=PWM11
Added Pin To Net: NetName=PWM12 Pin=P17-1
Added Pin To Net: NetName=PWM12 Pin=U2-48
Added Net: Name=PWM12
Added Pin To Net: NetName=PWM13 Pin=P18-1
Added Pin To Net: NetName=PWM13 Pin=U2-63
Added Net: Name=PWM13
Added Pin To Net: NetName=PWM14 Pin=P19-1
Added Pin To Net: NetName=PWM14 Pin=U2-64
Added Net: Name=PWM14
Added Pin To Net: NetName=PWM15 Pin=P20-1
Added Pin To Net: NetName=PWM15 Pin=U2-65
Added Net: Name=PWM15
Added Pin To Net: NetName=PWM16 Pin=P21-1
Added Pin To Net: NetName=PWM16 Pin=U2-66
Added Net: Name=PWM16
Added Pin To Net: NetName=RX Pin=P3-2
Added Pin To Net: NetName=RX Pin=U2-69
Added Net: Name=RX
Added Pin To Net: NetName=SI Pin=P9-5
Added Pin To Net: NetName=SI Pin=U2-16
Added Net: Name=SI
Added Pin To Net: NetName=SWCLK Pin=P1-4
Added Pin To Net: NetName=SWCLK Pin=U2-76
Added Net: Name=SWCLK
Added Pin To Net: NetName=SWDIO Pin=P1-2
Added Pin To Net: NetName=SWDIO Pin=U2-72
Added Net: Name=SWDIO
Added Pin To Net: NetName=TX Pin=P3-1
Added Pin To Net: NetName=TX Pin=U2-68
Added Net: Name=TX
Added Pin To Net: NetName=VCC3.3 Pin=C19-2
Added Pin To Net: NetName=VCC3.3 Pin=C20-2
Added Pin To Net: NetName=VCC3.3 Pin=P1-3
Added Pin To Net: NetName=VCC3.3 Pin=P9-2
Added Pin To Net: NetName=VCC3.3 Pin=P23-1
Added Pin To Net: NetName=VCC3.3 Pin=P23-2
Added Pin To Net: NetName=VCC3.3 Pin=P23-3
Added Pin To Net: NetName=VCC3.3 Pin=R9-1
Added Pin To Net: NetName=VCC3.3 Pin=R15-1
Added Pin To Net: NetName=VCC3.3 Pin=U2-11
Added Pin To Net: NetName=VCC3.3 Pin=U2-28
Added Pin To Net: NetName=VCC3.3 Pin=U2-50
Added Pin To Net: NetName=VCC3.3 Pin=U2-75
Added Pin To Net: NetName=VCC3.3 Pin=U2-100
Added Pin To Net: NetName=VCC3.3 Pin=U6-2
Added Pin To Net: NetName=VCC3.3 Pin=U6-4
Added Net: Name=VCC3.3
Added Pin To Net: NetName=VCC5.0 Pin=C14-2
Added Pin To Net: NetName=VCC5.0 Pin=C15-2
Added Pin To Net: NetName=VCC5.0 Pin=D6-1
Added Pin To Net: NetName=VCC5.0 Pin=P3-4
Added Pin To Net: NetName=VCC5.0 Pin=P24-1
Added Pin To Net: NetName=VCC5.0 Pin=P24-2
Added Pin To Net: NetName=VCC5.0 Pin=P24-3
Added Pin To Net: NetName=VCC5.0 Pin=R14-1
Added Pin To Net: NetName=VCC5.0 Pin=U5-2
Added Pin To Net: NetName=VCC5.0 Pin=U5-4
Added Net: Name=VCC5.0
Added Pin To Net: NetName=VDDA Pin=C16-1
Added Pin To Net: NetName=VDDA Pin=C17-2
Added Pin To Net: NetName=VDDA Pin=C18-2
Added Pin To Net: NetName=VDDA Pin=R15-2
Added Pin To Net: NetName=VDDA Pin=U2-21
Added Pin To Net: NetName=VDDA Pin=U2-22
Added Net: Name=VDDA
Added Pin To Net: NetName=VSSA Pin=C16-2
Added Pin To Net: NetName=VSSA Pin=C17-1
Added Pin To Net: NetName=VSSA Pin=C18-1
Added Pin To Net: NetName=VSSA Pin=R16-2
Added Pin To Net: NetName=VSSA Pin=U2-19
Added Pin To Net: NetName=VSSA Pin=U2-20
Added Net: Name=VSSA
Added Class: Name=Sheet1
Added Room: Name=Sheet1
