Board Information Report
Filename     : F:\Match\全国大学生综合能力\PCB\PCB1.PcbDoc
Date         : 2017/3/6
Time         : 15:54:41
Time Elapsed : 00:00:00

Routing Information
    Routing completion, 100.00%
    Connections, 79
    Connections routed, 79
    Connections remaining, 0
count : 4