==========[2015-01-19 20:00:03]==========
==========[2015-04-05 14:20:34]==========
==========[2015-04-05 14:24:38]==========
==========[2015-04-05 14:40:33]==========
==========[2015-04-05 14:42:01]==========
==========[2015-04-05 14:43:04]==========
==========[2015-05-11 19:49:51]==========
==========[2015-05-11 19:50:46]==========
==========[2015-05-11 19:52:49]==========
==========[2015-05-11 20:02:48]==========
==========[2015-05-11 20:08:17]==========
==========[2015-05-11 20:11:49]==========
==========[2015-05-11 20:15:51]==========
==========[2015-05-11 20:20:11]==========
==========[2015-05-11 20:22:21]==========
==========[2015-05-11 20:36:35]==========
==========[2015-05-11 20:40:18]==========
==========[2015-05-11 20:55:57]==========
==========[2015-05-11 20:58:22]==========
==========[2015-05-11 21:12:24]==========
==========[2015-05-11 22:31:03]==========
==========[2015-05-11 23:21:37]==========
==========[2015-05-11 23:55:28]==========
==========[2015-05-12 00:09:53]==========
==========[2015-05-12 14:38:16]==========
==========[2015-05-13 09:44:29]==========
==========[2015-05-13 10:05:22]==========
==========[2015-05-15 18:55:04]==========
==========[2015-05-15 18:55:45]==========
==========[2015-05-15 19:07:28]==========
==========[2015-05-15 19:13:24]==========
==========[2015-05-15 19:43:02]==========
==========[2015-05-15 22:56:31]==========
==========[2015-05-16 15:09:32]==========
==========[2015-05-16 15:20:53]==========
==========[2015-05-16 15:30:23]==========
==========[2015-05-16 15:47:29]==========
==========[2015-05-16 18:38:45]==========
==========[2015-05-16 18:41:29]==========
==========[2015-05-17 12:45:58]==========
==========[2015-05-17 13:02:03]==========
==========[2015-05-17 13:33:18]==========
==========[2015-05-17 14:07:07]==========
==========[2015-05-17 14:27:33]==========
==========[2015-05-17 16:38:43]==========
==========[2015-05-17 20:05:18]==========
==========[2015-05-18 02:57:45]==========
==========[2015-05-18 03:13:05]==========
==========[2015-05-18 10:37:19]==========
==========[2015-05-18 10:50:51]==========
==========[2015-05-18 10:52:05]==========
==========[2015-05-18 10:55:38]==========
==========[2015-05-18 11:01:48]==========
==========[2015-05-18 14:32:55]==========
==========[2015-05-19 02:20:37]==========
==========[2015-05-19 03:11:52]==========
==========[2015-05-19 16:21:40]==========
==========[2015-05-19 16:35:42]==========
==========[2015-05-19 23:27:34]==========
==========[2015-05-19 23:51:16]==========
==========[2015-05-19 23:53:24]==========
==========[2015-05-19 23:54:46]==========
==========[2015-05-19 23:56:38]==========
==========[2015-05-19 23:58:49]==========
==========[2015-05-19 23:59:14]==========
==========[2015-05-20 00:00:09]==========
==========[2015-05-20 00:02:24]==========
==========[2015-05-20 00:03:38]==========
==========[2015-05-20 00:05:13]==========
==========[2015-05-20 00:07:11]==========
==========[2015-05-20 00:08:02]==========
==========[2015-05-20 00:12:44]==========
==========[2015-05-20 00:59:54]==========
==========[2015-05-20 01:02:49]==========
==========[2015-05-20 01:08:28]==========
==========[2015-05-20 01:13:49]==========
==========[2015-05-20 01:16:36]==========
==========[2015-05-20 01:18:06]==========
==========[2015-05-20 01:21:30]==========
==========[2015-05-20 01:27:07]==========
==========[2015-05-20 01:35:49]==========
==========[2015-05-20 01:45:49]==========
==========[2015-05-20 01:47:39]==========
==========[2015-05-20 01:51:01]==========
==========[2015-05-20 08:13:21]==========
==========[2015-05-20 08:20:45]==========
==========[2015-05-20 08:40:20]==========
==========[2015-05-20 08:41:17]==========
==========[2015-05-20 08:42:00]==========
==========[2015-05-20 08:43:24]==========
==========[2015-05-20 08:47:26]==========
==========[2015-05-20 08:49:35]==========
==========[2015-05-20 08:50:07]==========
==========[2015-05-20 08:53:09]==========
==========[2015-05-20 08:54:13]==========
==========[2015-05-20 08:55:15]==========
==========[2015-05-20 09:03:07]==========
==========[2015-05-20 09:03:47]==========
==========[2015-05-20 09:04:18]==========
==========[2015-05-20 09:22:18]==========
==========[2015-05-20 09:29:24]==========
==========[2015-05-20 09:31:34]==========
==========[2015-05-20 09:33:53]==========
==========[2015-05-20 09:47:28]==========
==========[2015-05-20 09:50:12]==========
==========[2015-05-20 09:53:26]==========
==========[2015-05-20 09:54:51]==========
==========[2015-05-20 09:55:08]==========
==========[2015-05-20 09:57:07]==========
==========[2015-05-20 09:57:39]==========
==========[2015-05-20 10:00:02]==========
==========[2015-05-20 10:21:34]==========
==========[2015-05-20 10:32:11]==========
==========[2015-05-20 11:49:27]==========
==========[2015-05-20 11:52:58]==========
==========[2015-05-20 12:14:46]==========
==========[2015-05-20 12:17:23]==========
==========[2015-05-20 12:19:01]==========
==========[2015-05-20 12:21:31]==========
==========[2015-05-20 13:14:03]==========
==========[2015-05-20 13:26:02]==========
==========[2015-05-20 13:30:53]==========
==========[2015-05-20 13:35:05]==========
==========[2015-05-20 14:08:26]==========
==========[2015-05-20 14:25:18]==========
==========[2015-05-20 14:59:29]==========
==========[2015-05-20 15:06:29]==========
==========[2015-05-20 15:08:41]==========
==========[2015-05-20 15:12:36]==========
==========[2015-05-20 15:13:45]==========
==========[2015-05-20 15:14:46]==========
==========[2015-05-20 16:03:28]==========
==========[2015-05-20 16:06:29]==========
==========[2015-05-20 16:07:17]==========
==========[2015-05-20 16:08:12]==========
==========[2015-05-20 16:11:06]==========
==========[2015-05-20 16:15:08]==========
==========[2015-05-20 16:15:56]==========
==========[2015-05-20 16:18:14]==========
==========[2015-05-20 16:19:41]==========
==========[2015-05-20 16:21:22]==========
==========[2015-05-20 16:22:14]==========
==========[2015-05-20 16:22:45]==========
==========[2015-05-20 16:26:29]==========
==========[2015-05-20 16:32:59]==========
==========[2015-05-20 16:35:22]==========
==========[2015-05-20 16:37:12]==========
==========[2015-05-20 16:38:32]==========
==========[2015-05-20 16:39:13]==========
==========[2015-05-20 16:39:54]==========
==========[2015-05-20 16:41:26]==========
==========[2015-05-20 16:42:22]==========
==========[2015-05-20 16:44:53]==========
==========[2015-05-20 16:45:35]==========
==========[2015-05-20 16:46:54]==========
==========[2015-05-20 16:50:20]==========
==========[2015-05-20 16:51:37]==========
==========[2015-05-20 16:54:22]==========
==========[2015-05-20 17:00:29]==========
==========[2015-05-20 17:11:18]==========
==========[2015-05-20 17:11:41]==========
==========[2015-05-20 17:16:39]==========
==========[2015-05-20 17:21:58]==========
==========[2015-05-20 17:55:06]==========
==========[2015-05-20 17:56:53]==========
==========[2015-05-20 17:58:43]==========
==========[2015-05-20 18:09:36]==========
==========[2015-05-20 18:11:13]==========
==========[2015-05-20 18:17:52]==========
==========[2015-05-20 18:25:47]==========
==========[2015-05-20 18:30:41]==========
==========[2015-05-20 18:32:16]==========
==========[2015-05-20 18:39:09]==========
==========[2015-05-20 18:41:33]==========
==========[2015-05-20 18:48:53]==========
==========[2015-05-20 18:54:04]==========
==========[2015-05-20 19:01:52]==========
==========[2015-05-20 19:05:16]==========
==========[2015-05-20 19:10:20]==========
==========[2015-05-20 19:27:07]==========
==========[2015-05-20 19:27:50]==========
==========[2015-05-20 19:28:43]==========
==========[2015-05-20 20:08:12]==========
==========[2015-05-20 20:15:07]==========
==========[2015-05-20 20:23:16]==========
==========[2015-05-20 20:26:44]==========
==========[2015-05-20 20:34:16]==========
==========[2015-05-20 20:36:14]==========
==========[2015-05-21 01:58:07]==========
==========[2015-05-21 02:16:12]==========
==========[2015-05-21 03:46:59]==========
==========[2015-05-21 03:52:58]==========
==========[2015-05-21 04:53:48]==========
==========[2015-05-21 09:25:54]==========
==========[2015-05-21 15:40:09]==========
==========[2015-05-21 16:51:39]==========
==========[2015-05-21 17:43:03]==========
==========[2015-05-21 19:33:24]==========
==========[2015-05-21 19:35:34]==========
==========[2015-05-21 23:50:32]==========
==========[2015-05-21 23:58:39]==========
==========[2015-05-21 23:59:40]==========
==========[2015-05-22 00:02:44]==========
==========[2015-05-22 00:03:16]==========
==========[2015-05-22 00:40:10]==========
==========[2015-05-22 00:46:42]==========
==========[2015-05-22 00:48:20]==========
==========[2015-05-22 00:56:49]==========
==========[2015-05-22 01:00:20]==========
==========[2015-05-22 01:02:35]==========
==========[2015-05-22 01:04:26]==========
==========[2015-05-22 01:06:55]==========
==========[2015-05-22 01:11:12]==========
==========[2015-05-22 01:37:29]==========
==========[2015-05-22 01:44:13]==========
==========[2015-05-22 01:57:47]==========
==========[2015-05-22 02:00:47]==========
==========[2015-05-22 03:17:27]==========
==========[2015-05-22 17:49:22]==========
==========[2015-05-22 18:12:52]==========
==========[2015-05-22 19:11:26]==========
==========[2015-05-22 19:34:47]==========
==========[2015-05-22 21:13:49]==========
==========[2015-05-22 21:15:29]==========
==========[2015-05-22 21:15:47]==========
==========[2015-05-23 09:21:08]==========
==========[2015-05-23 11:39:31]==========
==========[2015-05-23 13:49:51]==========
==========[2015-05-23 13:51:00]==========
==========[2015-05-24 14:58:55]==========
==========[2015-05-24 15:18:02]==========
==========[2015-05-25 22:14:15]==========
==========[2015-05-26 12:55:07]==========
==========[2015-05-26 18:29:05]==========
==========[2015-05-27 09:30:06]==========
==========[2015-05-27 09:31:36]==========
==========[2015-05-29 16:38:22]==========
==========[2015-05-29 20:22:19]==========
==========[2015-05-31 17:30:12]==========
==========[2015-05-31 18:09:29]==========
==========[2015-06-08 21:31:02]==========
==========[2015-06-10 20:11:12]==========
==========[2015-06-11 20:22:42]==========
==========[2015-08-30 23:02:05]==========
==========[2015-08-30 23:03:11]==========
==========[2015-09-09 21:26:44]==========
==========[2015-09-14 15:15:19]==========
==========[2015-10-23 11:40:51]==========
==========[2015-11-22 10:09:12]==========
==========[2015-12-13 18:06:10]==========
==========[2016-01-19 08:37:47]==========
==========[2016-01-19 08:38:11]==========
==========[2016-01-19 09:19:11]==========
==========[2016-01-19 09:19:16]==========
==========[2016-01-19 09:43:26]==========
==========[2016-01-19 09:43:46]==========
==========[2016-01-19 09:44:38]==========
==========[2016-01-19 09:45:22]==========
==========[2016-01-19 09:45:56]==========
==========[2016-01-19 09:48:24]==========
==========[2016-01-19 09:49:01]==========
==========[2016-01-19 09:52:35]==========
==========[2016-01-19 09:53:09]==========
==========[2016-01-19 09:53:57]==========
==========[2016-01-19 09:54:32]==========
==========[2016-01-19 09:58:15]==========
==========[2016-01-19 10:03:29]==========
==========[2016-07-15 16:42:55]==========
