C51 COMPILER V9.01   BSP                                                                   09/28/2016 12:19:34 PAGE 1   


C51 COMPILER V9.01, COMPILATION OF MODULE BSP
OBJECT MODULE PLACED IN BSP.obj
COMPILER INVOKED BY: D:\Keil_v4_c51\C51\BIN\C51.EXE src\BSP.c OPTIMIZE(9,SPEED) BROWSE INCDIR(.\inc) DEBUG OBJECTEXTEND 
                    -PRINT(.\BSP.lst) OBJECT(BSP.obj)

line level    source

*** WARNING C500 IN LINE 1 OF SRC\BSP.C: LICENSE ERROR (R208: RENEW LICENSE ID CODE (LIC))

   1          #include "main.h"
   2          
   3          static void delay_hw()
   4          {
   5   1              int x,y;
   6   1              for(x=150;x>1;x--)
   7   1              {
   8   2                      for(y=1000;y>1;y--);
   9   2              }
  10   1      }
  11          
  12          void BSP_init()
  13          {
  14   1              delay_hw();
  15   1          P5M1 &= ~0X20;               //P55设置为推挽模式
  16   1              P5M0 |= 0X20;
  17   1              LED = 0;
  18   1      
  19   1              Uart_Init();
  20   1              Ultrasonic_Init();
  21   1              PWM_Init();
  22   1      }


MODULE INFORMATION:   STATIC OVERLAYABLE
   CODE SIZE        =     51    ----
   CONSTANT SIZE    =   ----    ----
   XDATA SIZE       =   ----    ----
   PDATA SIZE       =   ----    ----
   DATA SIZE        =   ----    ----
   IDATA SIZE       =   ----    ----
   BIT SIZE         =   ----    ----
END OF MODULE INFORMATION.


C51 COMPILATION COMPLETE.  1 WARNING(S),  0 ERROR(S)
