C51 COMPILER V9.01   INFRARED                                                              03/14/2017 22:22:06 PAGE 1   


C51 COMPILER V9.01, COMPILATION OF MODULE INFRARED
OBJECT MODULE PLACED IN infrared.obj
COMPILER INVOKED BY: D:\Keil_v4_c51\C51\BIN\C51.EXE src\infrared.c OPTIMIZE(9,SPEED) BROWSE INCDIR(.\inc) DEBUG OBJECTEX
                    -TEND PRINT(.\infrared.lst) OBJECT(infrared.obj)

line level    source

   1          #include "infrared.h"
   2          #include "main.h"
   3          
   4          sbit inf1 = P1^2;                 
   5          sbit inf2 = P5^4;        
   6          
   7          sbit inf3 = P3^6;
   8          sbit inf4 = P1^4;
   9          sbit inf5 = P1^3;
  10          
  11          u8 infrared()
  12          {
  13   1              u8 flag = 0;
  14   1              if( inf1 )
  15   1              {
  16   2                      flag |= 0x01;
  17   2              }
  18   1      
  19   1              if( inf2 )
  20   1              {
  21   2                      flag |= 0x02;
  22   2              }
  23   1      
  24   1              if( inf3 )
  25   1              {
  26   2                      flag |= 0x04;
  27   2              }
  28   1      
  29   1              if( inf4 )
  30   1              {
  31   2                      flag |= 0x08;
  32   2              }
  33   1      
  34   1              if( inf5 )
  35   1              {
  36   2                      flag |= 0x10;
  37   2              }
  38   1      
  39   1              return  flag;
  40   1      }


MODULE INFORMATION:   STATIC OVERLAYABLE
   CODE SIZE        =     31    ----
   CONSTANT SIZE    =   ----    ----
   XDATA SIZE       =   ----    ----
   PDATA SIZE       =   ----    ----
   DATA SIZE        =   ----    ----
   IDATA SIZE       =   ----    ----
   BIT SIZE         =   ----    ----
END OF MODULE INFORMATION.


C51 COMPILATION COMPLETE.  0 WARNING(S),  0 ERROR(S)
