C51 COMPILER V9.01   TACTICS                                                               03/14/2017 22:22:05 PAGE 1   


C51 COMPILER V9.01, COMPILATION OF MODULE TACTICS
OBJECT MODULE PLACED IN tactics.obj
COMPILER INVOKED BY: D:\Keil_v4_c51\C51\BIN\C51.EXE src\tactics.c OPTIMIZE(9,SPEED) BROWSE INCDIR(.\inc) DEBUG OBJECTEXT
                    -END PRINT(.\tactics.lst) OBJECT(tactics.obj)

line level    source

   1          #include "tactics.h"
   2          #include "main.h"
   3          
   4          
   5          void go( u8 inf_val )
   6          {
   7   1      
   8   1              if( (inf_val&0x02)&&(!(inf_val&0x04)) )         //3号有障碍物  2号没有
   9   1              {
  10   2                      Motor(MOTOR_CENTER+20);
  11   2              }
  12   1              else  if( (inf_val&0x04)&&(!(inf_val&0x02)) )      //2号有障碍物  3号没有
  13   1              {
  14   2                      Motor(MOTOR_CENTER-20);
  15   2              }
  16   1              else  if( (!(inf_val&0x04))&&(!(inf_val&0x02)) )           //  都有障碍物
  17   1              {
  18   2                      if( (!(inf_val&0x08))&&(inf_val&0x01) )                   //如果4号有   1号无
  19   2                      {
  20   3                               Motor(MOTOR_CENTER+40);
  21   3                      }
  22   2                      else if( (!(inf_val&0x01))&&(inf_val&0x08) )                      //如果1号有 4号无
  23   2                      {
  24   3                               Motor(MOTOR_CENTER-40);
  25   3                      }
  26   2              }
  27   1              else  if( (inf_val&0x10)&&((inf_val&0x02)) )       //都没有障碍物
  28   1              {
  29   2                      
  30   2                      if( (!(inf_val&0x08))&&(inf_val&0x01) )                   //如果4号有   1号无
  31   2                      {
  32   3                              // Motor(MOTOR_CENTER+10);
  33   3                      }
  34   2                      else if( (!(inf_val&0x01))&&(inf_val&0x08) )                      //如果1号有 4号无
  35   2                      {
  36   3                              // Motor(MOTOR_CENTER-10);
  37   3                      }
  38   2              }
  39   1              else
  40   1              {
  41   2                      Motor(MOTOR_CENTER);
  42   2              }
  43   1      
  44   1      }


MODULE INFORMATION:   STATIC OVERLAYABLE
   CODE SIZE        =    111    ----
   CONSTANT SIZE    =   ----    ----
   XDATA SIZE       =   ----    ----
   PDATA SIZE       =   ----    ----
   DATA SIZE        =   ----       1
   IDATA SIZE       =   ----    ----
   BIT SIZE         =   ----    ----
C51 COMPILER V9.01   TACTICS                                                               03/14/2017 22:22:05 PAGE 2   

END OF MODULE INFORMATION.


C51 COMPILATION COMPLETE.  0 WARNING(S),  0 ERROR(S)
