C51 COMPILER V9.01   WORK                                                                  09/28/2016 14:00:12 PAGE 1   


C51 COMPILER V9.01, COMPILATION OF MODULE WORK
OBJECT MODULE PLACED IN work.obj
COMPILER INVOKED BY: D:\Keil_v4_c51\C51\BIN\C51.EXE src\work.c OPTIMIZE(9,SPEED) BROWSE INCDIR(.\inc) DEBUG OBJECTEXTEND
                    - PRINT(.\work.lst) OBJECT(work.obj)

line level    source

   1          #include "main.h"
   2          
   3          void Work_1()
   4          {
   5   1      
   6   1      }


MODULE INFORMATION:   STATIC OVERLAYABLE
   CODE SIZE        =      1    ----
   CONSTANT SIZE    =   ----    ----
   XDATA SIZE       =   ----    ----
   PDATA SIZE       =   ----    ----
   DATA SIZE        =   ----    ----
   IDATA SIZE       =   ----    ----
   BIT SIZE         =   ----    ----
END OF MODULE INFORMATION.


C51 COMPILATION COMPLETE.  0 WARNING(S),  0 ERROR(S)
