%FSLAX25Y25*%
%MOIN*%
G70*
G01*
G75*
G04 Layer_Physical_Order=4*
G04 Layer_Color=16711680*
%ADD10C,0.01500*%
%ADD11C,0.01000*%
%ADD12C,0.00800*%
%ADD13C,0.01800*%
%ADD14C,0.02500*%
%ADD15C,0.03000*%
%ADD16C,0.02000*%
%ADD17C,0.04000*%
%ADD18C,0.06000*%
%ADD19R,0.02756X0.02362*%
%ADD20R,0.05118X0.03150*%
%ADD21R,0.11024X0.08268*%
%ADD22R,0.03150X0.04724*%
%ADD23R,0.03543X0.05906*%
%ADD24R,0.06693X0.05512*%
%ADD25R,0.06299X0.10630*%
%ADD26R,0.02800X0.03500*%
%ADD27R,0.03500X0.02800*%
%ADD28R,0.08661X0.05512*%
%ADD29R,0.03543X0.05512*%
%ADD30R,0.11811X0.07874*%
G04:AMPARAMS|DCode=31|XSize=100mil|YSize=129.92mil|CornerRadius=0mil|HoleSize=0mil|Usage=FLASHONLY|Rotation=180.000|XOffset=0mil|YOffset=0mil|HoleType=Round|Shape=Octagon|*
%AMOCTAGOND31*
4,1,8,0.02500,-0.06496,-0.02500,-0.06496,-0.05000,-0.03996,-0.05000,0.03996,-0.02500,0.06496,0.02500,0.06496,0.05000,0.03996,0.05000,-0.03996,0.02500,-0.06496,0.0*
%
%ADD31OCTAGOND31*%

%ADD32O,0.06299X0.01969*%
%ADD33R,0.06299X0.01969*%
%ADD34R,0.01969X0.06299*%
%ADD35O,0.01969X0.06299*%
%ADD36O,0.00984X0.05906*%
%ADD37O,0.05906X0.00984*%
%ADD38R,0.02362X0.02756*%
%ADD39R,0.03937X0.04331*%
%ADD40R,0.04724X0.03150*%
%ADD41R,0.03150X0.03937*%
%ADD42R,0.03150X0.05118*%
%ADD43R,0.08268X0.11024*%
%ADD44R,0.03937X0.03150*%
%ADD45R,0.03150X0.02362*%
%ADD46R,0.05118X0.04331*%
%ADD47C,0.03937*%
%ADD48C,0.06500*%
%ADD49C,0.05000*%
%ADD50R,0.04600X0.04600*%
%ADD51R,0.05200X0.13000*%
%ADD52R,0.35200X0.12100*%
%ADD53R,0.11600X0.05700*%
%ADD54R,0.13000X0.11000*%
%ADD55R,0.04800X0.02900*%
%ADD56R,0.02800X0.01300*%
%ADD57O,0.07480X0.06299*%
%ADD58C,0.10630*%
%ADD59C,0.11811*%
%ADD60C,0.07087*%
%ADD61C,0.25590*%
%ADD62C,0.05906*%
%ADD63C,0.07874*%
%ADD64C,0.02362*%
%ADD65R,0.35200X0.12100*%
%ADD66R,0.04600X0.45600*%
%ADD67R,0.04800X0.02300*%
%ADD68R,0.02800X0.03000*%
%ADD69R,0.04500X0.04400*%
G36*
X177862Y-1459D02*
X176705Y-1938D01*
X174893Y-3048D01*
X173278Y-4428D01*
X171899Y-6043D01*
X170789Y-7854D01*
X169976Y-9817D01*
X169480Y-11882D01*
X169313Y-14000D01*
X169480Y-16118D01*
X169976Y-18183D01*
X170789Y-20146D01*
X171899Y-21957D01*
X173278Y-23572D01*
X174893Y-24952D01*
X176705Y-26062D01*
X178667Y-26875D01*
X180733Y-27370D01*
X182850Y-27537D01*
X184968Y-27370D01*
X187033Y-26875D01*
X188996Y-26062D01*
X190807Y-24952D01*
X192422Y-23572D01*
X193802Y-21957D01*
X194912Y-20146D01*
X195391Y-18988D01*
X195882Y-19086D01*
Y-177765D01*
X195391Y-177862D01*
X194912Y-176705D01*
X193802Y-174893D01*
X192422Y-173278D01*
X190807Y-171899D01*
X188996Y-170789D01*
X187033Y-169976D01*
X184968Y-169480D01*
X182850Y-169313D01*
X180733Y-169480D01*
X178667Y-169976D01*
X176705Y-170789D01*
X174893Y-171899D01*
X173278Y-173278D01*
X171899Y-174893D01*
X170789Y-176705D01*
X169976Y-178667D01*
X169480Y-180733D01*
X169313Y-182850D01*
X169480Y-184968D01*
X169976Y-187033D01*
X170789Y-188996D01*
X171899Y-190807D01*
X173278Y-192422D01*
X174893Y-193802D01*
X176705Y-194912D01*
X177862Y-195391D01*
X177765Y-195882D01*
X19086D01*
X18988Y-195391D01*
X20146Y-194912D01*
X21957Y-193802D01*
X23572Y-192422D01*
X24952Y-190807D01*
X26062Y-188996D01*
X26875Y-187033D01*
X27370Y-184968D01*
X27537Y-182850D01*
X27370Y-180733D01*
X26875Y-178667D01*
X26062Y-176705D01*
X24952Y-174893D01*
X23572Y-173278D01*
X21957Y-171899D01*
X20146Y-170789D01*
X18183Y-169976D01*
X16118Y-169480D01*
X14000Y-169313D01*
X11882Y-169480D01*
X9817Y-169976D01*
X7854Y-170789D01*
X6043Y-171899D01*
X4428Y-173278D01*
X3048Y-174893D01*
X1939Y-176705D01*
X1459Y-177862D01*
X969Y-177765D01*
Y-19086D01*
X1459Y-18988D01*
X1939Y-20146D01*
X3048Y-21957D01*
X4428Y-23572D01*
X6043Y-24952D01*
X7854Y-26062D01*
X9817Y-26875D01*
X11882Y-27370D01*
X14000Y-27537D01*
X16118Y-27370D01*
X18183Y-26875D01*
X20146Y-26062D01*
X21957Y-24952D01*
X23572Y-23572D01*
X24952Y-21957D01*
X26062Y-20146D01*
X26875Y-18183D01*
X27370Y-16118D01*
X27537Y-14000D01*
X27370Y-11882D01*
X26875Y-9817D01*
X26062Y-7854D01*
X24952Y-6043D01*
X23572Y-4428D01*
X21957Y-3048D01*
X20146Y-1938D01*
X18183Y-1125D01*
X18202Y-969D01*
X177765D01*
X177862Y-1459D01*
D02*
G37*
%LPC*%
G36*
X159500Y-129982D02*
X158766Y-130128D01*
X158144Y-130544D01*
X157728Y-131166D01*
X157582Y-131900D01*
X157728Y-132634D01*
X158144Y-133256D01*
X158766Y-133672D01*
X159500Y-133818D01*
X160234Y-133672D01*
X160856Y-133256D01*
X161272Y-132634D01*
X161418Y-131900D01*
X161272Y-131166D01*
X160856Y-130544D01*
X160234Y-130128D01*
X159500Y-129982D01*
D02*
G37*
G36*
X83000Y-123582D02*
X82266Y-123728D01*
X81644Y-124144D01*
X81228Y-124766D01*
X81082Y-125500D01*
X81228Y-126234D01*
X81644Y-126856D01*
X82266Y-127272D01*
X83000Y-127418D01*
X83734Y-127272D01*
X84356Y-126856D01*
X84772Y-126234D01*
X84918Y-125500D01*
X84772Y-124766D01*
X84356Y-124144D01*
X83734Y-123728D01*
X83000Y-123582D01*
D02*
G37*
G36*
X70000Y-140735D02*
X34000D01*
X33707Y-140794D01*
X33459Y-140959D01*
X33294Y-141207D01*
X33235Y-141500D01*
X33294Y-141793D01*
X33459Y-142041D01*
X33707Y-142207D01*
X34000Y-142265D01*
X70000D01*
X70293Y-142207D01*
X70541Y-142041D01*
X70706Y-141793D01*
X70765Y-141500D01*
X70706Y-141207D01*
X70541Y-140959D01*
X70293Y-140794D01*
X70000Y-140735D01*
D02*
G37*
G36*
X120300Y-130982D02*
X119566Y-131128D01*
X118944Y-131544D01*
X118528Y-132166D01*
X118382Y-132900D01*
X118528Y-133634D01*
X118944Y-134256D01*
X119566Y-134672D01*
X120300Y-134818D01*
X121034Y-134672D01*
X121656Y-134256D01*
X122072Y-133634D01*
X122218Y-132900D01*
X122072Y-132166D01*
X121656Y-131544D01*
X121034Y-131128D01*
X120300Y-130982D01*
D02*
G37*
G36*
X94800Y-106282D02*
X94066Y-106428D01*
X93444Y-106844D01*
X93028Y-107466D01*
X92882Y-108200D01*
X93028Y-108934D01*
X93444Y-109556D01*
X94066Y-109972D01*
X94800Y-110118D01*
X95534Y-109972D01*
X96156Y-109556D01*
X96572Y-108934D01*
X96718Y-108200D01*
X96572Y-107466D01*
X96156Y-106844D01*
X95534Y-106428D01*
X94800Y-106282D01*
D02*
G37*
G36*
Y-98382D02*
X94066Y-98528D01*
X93444Y-98944D01*
X93028Y-99566D01*
X92882Y-100300D01*
X93028Y-101034D01*
X93444Y-101656D01*
X94066Y-102072D01*
X94800Y-102218D01*
X95534Y-102072D01*
X96156Y-101656D01*
X96572Y-101034D01*
X96718Y-100300D01*
X96572Y-99566D01*
X96156Y-98944D01*
X95534Y-98528D01*
X94800Y-98382D01*
D02*
G37*
G36*
X180600Y-83020D02*
X179492Y-83166D01*
X178460Y-83593D01*
X177574Y-84274D01*
X176893Y-85160D01*
X176466Y-86192D01*
X176320Y-87300D01*
X176466Y-88408D01*
X176893Y-89440D01*
X177574Y-90326D01*
X178460Y-91006D01*
X179492Y-91434D01*
X180600Y-91580D01*
X181708Y-91434D01*
X182740Y-91006D01*
X183626Y-90326D01*
X184307Y-89440D01*
X184734Y-88408D01*
X184880Y-87300D01*
X184734Y-86192D01*
X184307Y-85160D01*
X183626Y-84274D01*
X182740Y-83593D01*
X181708Y-83166D01*
X180600Y-83020D01*
D02*
G37*
G36*
X12450Y-117101D02*
X7550D01*
Y-121301D01*
X12450D01*
Y-120447D01*
X12523Y-120433D01*
Y-120430D01*
Y-120424D01*
X13354D01*
Y-120425D01*
X13362Y-120424D01*
X13372D01*
X13626Y-120530D01*
X13644Y-120556D01*
X14266Y-120972D01*
X15000Y-121118D01*
X15032Y-121112D01*
X15287Y-121218D01*
X15292Y-121222D01*
X15297Y-121229D01*
X15298Y-121228D01*
X17884Y-123815D01*
X17693Y-124276D01*
X16644D01*
Y-124276D01*
X16636Y-124276D01*
X16630D01*
X16374Y-124171D01*
X16356Y-124144D01*
X15734Y-123728D01*
X15000Y-123582D01*
X14266Y-123728D01*
X13644Y-124144D01*
X13626Y-124171D01*
X13370Y-124276D01*
X13363D01*
X13356Y-124276D01*
Y-124276D01*
X12523D01*
Y-124271D01*
Y-124268D01*
X12450Y-124254D01*
Y-123400D01*
X7550D01*
Y-127600D01*
X12450D01*
Y-126746D01*
X12523Y-126732D01*
Y-126729D01*
Y-126724D01*
X13356D01*
Y-126725D01*
X13363Y-126724D01*
X13370D01*
X13626Y-126829D01*
X13644Y-126856D01*
X14266Y-127272D01*
X15000Y-127418D01*
X15734Y-127272D01*
X16356Y-126856D01*
X16374Y-126829D01*
X16630Y-126724D01*
X16636D01*
X16644Y-126725D01*
Y-126724D01*
X17593D01*
X27935Y-137065D01*
X28173Y-137224D01*
X28332Y-137330D01*
X28800Y-137424D01*
X78793D01*
X82735Y-141365D01*
X83132Y-141630D01*
X83600Y-141724D01*
X86356D01*
Y-141725D01*
X86364Y-141724D01*
X86370D01*
X86626Y-141829D01*
X86644Y-141856D01*
X87266Y-142272D01*
X88000Y-142418D01*
X88734Y-142272D01*
X89356Y-141856D01*
X89772Y-141234D01*
X89918Y-140500D01*
X89772Y-139766D01*
X89356Y-139144D01*
X88734Y-138728D01*
X88000Y-138582D01*
X87266Y-138728D01*
X86644Y-139144D01*
X86626Y-139171D01*
X86370Y-139277D01*
X86364D01*
X86356Y-139276D01*
Y-139277D01*
X84107D01*
X83582Y-138752D01*
X83727Y-138273D01*
X83734Y-138272D01*
X84356Y-137856D01*
X84772Y-137234D01*
X84918Y-136500D01*
X84772Y-135766D01*
X84356Y-135144D01*
X83734Y-134728D01*
X83000Y-134582D01*
X82968Y-134588D01*
X82713Y-134482D01*
X82708Y-134478D01*
X82703Y-134471D01*
X82702Y-134472D01*
X81365Y-133135D01*
X80968Y-132870D01*
X80500Y-132776D01*
X69824D01*
X69775Y-132279D01*
X69873Y-132259D01*
X70105Y-132105D01*
X70259Y-131873D01*
X70314Y-131600D01*
Y-119500D01*
X70259Y-119227D01*
X70105Y-118995D01*
X69873Y-118841D01*
X69600Y-118786D01*
X34400D01*
X34127Y-118841D01*
X33895Y-118995D01*
X33741Y-119227D01*
X33686Y-119500D01*
Y-131600D01*
X33741Y-131873D01*
X33895Y-132105D01*
X34127Y-132259D01*
X34225Y-132279D01*
X34190Y-132633D01*
X34046Y-132776D01*
X30307D01*
X17028Y-119498D01*
D01*
D01*
X17029Y-119497D01*
X17022Y-119492D01*
X17018Y-119487D01*
X16912Y-119231D01*
X16918Y-119200D01*
X16772Y-118466D01*
X16356Y-117844D01*
X15734Y-117428D01*
X15000Y-117282D01*
X14266Y-117428D01*
X13644Y-117844D01*
X13626Y-117871D01*
X13369Y-117977D01*
X13365D01*
X13358Y-117976D01*
Y-117977D01*
X12523D01*
Y-117969D01*
X12450Y-117954D01*
Y-117101D01*
D02*
G37*
G36*
X118900Y-177056D02*
X117721Y-177172D01*
X116587Y-177516D01*
X115542Y-178075D01*
X114626Y-178826D01*
X113875Y-179742D01*
X113316Y-180787D01*
X112972Y-181921D01*
X112856Y-183100D01*
X112972Y-184279D01*
X113316Y-185413D01*
X113875Y-186458D01*
X114626Y-187374D01*
X115542Y-188125D01*
X116587Y-188684D01*
X117721Y-189028D01*
X118900Y-189144D01*
X120079Y-189028D01*
X121213Y-188684D01*
X122258Y-188125D01*
X123174Y-187374D01*
X123925Y-186458D01*
X124484Y-185413D01*
X124828Y-184279D01*
X124944Y-183100D01*
X124828Y-181921D01*
X124484Y-180787D01*
X123925Y-179742D01*
X123174Y-178826D01*
X122258Y-178075D01*
X121213Y-177516D01*
X120079Y-177172D01*
X118900Y-177056D01*
D02*
G37*
G36*
X164500Y-183982D02*
X163766Y-184128D01*
X163144Y-184544D01*
X162728Y-185166D01*
X162582Y-185900D01*
X162728Y-186634D01*
X163144Y-187256D01*
X163766Y-187672D01*
X164500Y-187818D01*
X165234Y-187672D01*
X165856Y-187256D01*
X166272Y-186634D01*
X166418Y-185900D01*
X166272Y-185166D01*
X165856Y-184544D01*
X165234Y-184128D01*
X164500Y-183982D01*
D02*
G37*
G36*
X133100Y-190282D02*
X132366Y-190428D01*
X131744Y-190844D01*
X131328Y-191466D01*
X131182Y-192200D01*
X131328Y-192934D01*
X131744Y-193556D01*
X132366Y-193972D01*
X133100Y-194118D01*
X133834Y-193972D01*
X134456Y-193556D01*
X134872Y-192934D01*
X135018Y-192200D01*
X134872Y-191466D01*
X134456Y-190844D01*
X133834Y-190428D01*
X133100Y-190282D01*
D02*
G37*
G36*
X91000Y-177056D02*
X89821Y-177172D01*
X88687Y-177516D01*
X87642Y-178075D01*
X86726Y-178826D01*
X85975Y-179742D01*
X85416Y-180787D01*
X85072Y-181921D01*
X84956Y-183100D01*
X85072Y-184279D01*
X85416Y-185413D01*
X85975Y-186458D01*
X86726Y-187374D01*
X87642Y-188125D01*
X88687Y-188684D01*
X89821Y-189028D01*
X91000Y-189144D01*
X92179Y-189028D01*
X93313Y-188684D01*
X94358Y-188125D01*
X95274Y-187374D01*
X96026Y-186458D01*
X96584Y-185413D01*
X96928Y-184279D01*
X97044Y-183100D01*
X96928Y-181921D01*
X96584Y-180787D01*
X96026Y-179742D01*
X95274Y-178826D01*
X94358Y-178075D01*
X93313Y-177516D01*
X92179Y-177172D01*
X91000Y-177056D01*
D02*
G37*
G36*
X70000Y-153635D02*
X34000D01*
X33707Y-153693D01*
X33459Y-153859D01*
X33294Y-154107D01*
X33235Y-154400D01*
X33294Y-154692D01*
X33459Y-154941D01*
X33707Y-155106D01*
X34000Y-155165D01*
X70000D01*
X70293Y-155106D01*
X70541Y-154941D01*
X70706Y-154692D01*
X70765Y-154400D01*
X70706Y-154107D01*
X70541Y-153859D01*
X70293Y-153693D01*
X70000Y-153635D01*
D02*
G37*
G36*
X119491Y-149689D02*
X118309D01*
X117305Y-149822D01*
X116368Y-150210D01*
X115565Y-150826D01*
D01*
X115565Y-150826D01*
D01*
D01*
Y-150826D01*
X115564Y-150827D01*
X115564Y-150827D01*
X115534Y-150866D01*
X114855Y-151387D01*
X114018Y-151734D01*
X113218Y-151839D01*
X113120D01*
X113120Y-151839D01*
Y-151839D01*
X111428D01*
X110764Y-151971D01*
X110202Y-152347D01*
X107912Y-154637D01*
X107450Y-154445D01*
Y-154100D01*
X102550D01*
Y-154446D01*
X102088Y-154637D01*
X99798Y-152347D01*
X99236Y-151971D01*
X98572Y-151839D01*
X96780D01*
Y-151839D01*
X96780Y-151839D01*
X96682D01*
X95882Y-151734D01*
X95046Y-151387D01*
X94366Y-150866D01*
X94336Y-150827D01*
Y-150827D01*
X94336Y-150827D01*
X94336Y-150827D01*
D01*
D01*
D01*
X94336Y-150827D01*
X94336Y-150826D01*
X94336Y-150826D01*
X94335Y-150826D01*
X94335Y-150826D01*
X93744Y-150373D01*
X93532Y-150210D01*
X93532Y-150210D01*
Y-150210D01*
X93532Y-150210D01*
Y-150210D01*
Y-150210D01*
X93532Y-150210D01*
D01*
D01*
X92595Y-149822D01*
X91591Y-149689D01*
X90409D01*
X89404Y-149822D01*
X88468Y-150210D01*
X87664Y-150827D01*
X87047Y-151631D01*
X86659Y-152567D01*
X86527Y-153572D01*
X86659Y-154577D01*
X87047Y-155514D01*
X87664Y-156318D01*
X88468Y-156935D01*
X89404Y-157323D01*
X90409Y-157455D01*
X91591D01*
X92595Y-157323D01*
X93532Y-156935D01*
D01*
X93532Y-156935D01*
X93532Y-156935D01*
Y-156935D01*
X93532Y-156935D01*
X94335Y-156318D01*
X94336Y-156318D01*
X94336Y-156318D01*
Y-156318D01*
D01*
X94336Y-156318D01*
X94366Y-156279D01*
X95046Y-155757D01*
X95882Y-155411D01*
X96682Y-155306D01*
X96780D01*
X96780Y-155306D01*
Y-155306D01*
X97854D01*
X100274Y-157726D01*
X100274Y-157726D01*
X100274D01*
X100274Y-157726D01*
X100274D01*
X100274Y-157726D01*
Y-157726D01*
Y-157726D01*
D01*
D01*
X100274D01*
Y-157726D01*
X100837Y-158101D01*
X101500Y-158233D01*
X102550D01*
Y-158300D01*
X107450D01*
Y-158233D01*
X108500D01*
X109163Y-158101D01*
X109726Y-157726D01*
X109726Y-157726D01*
X109726Y-157726D01*
X112146Y-155306D01*
X113120D01*
Y-155306D01*
X113120Y-155306D01*
X113218D01*
X114018Y-155411D01*
X114855Y-155757D01*
X115534Y-156279D01*
X115564Y-156318D01*
X115564Y-156318D01*
X115565Y-156319D01*
D01*
D01*
X115565D01*
Y-156319D01*
X115565D01*
X116368Y-156935D01*
X117305Y-157323D01*
X118309Y-157455D01*
X119491D01*
X120495Y-157323D01*
X121432Y-156935D01*
X122236Y-156318D01*
X122853Y-155514D01*
X123241Y-154577D01*
X123373Y-153572D01*
X123241Y-152567D01*
X122853Y-151631D01*
X122236Y-150827D01*
X121432Y-150210D01*
X120495Y-149822D01*
X119491Y-149689D01*
D02*
G37*
G36*
X107450Y-160399D02*
X102550D01*
Y-160767D01*
X101500D01*
X100837Y-160899D01*
X100274Y-161274D01*
X97899Y-163650D01*
X96780D01*
Y-163650D01*
X96780Y-163650D01*
X96682D01*
X95882Y-163545D01*
X95046Y-163198D01*
X94366Y-162677D01*
X94336Y-162638D01*
Y-162638D01*
X94336Y-162638D01*
X94336Y-162638D01*
D01*
D01*
D01*
X94336Y-162638D01*
X94336Y-162637D01*
X94336Y-162637D01*
X94335Y-162637D01*
X94335Y-162637D01*
X93744Y-162184D01*
X93532Y-162021D01*
X93532Y-162021D01*
Y-162021D01*
X93532Y-162021D01*
Y-162021D01*
Y-162021D01*
X93532Y-162021D01*
D01*
D01*
X92595Y-161633D01*
X91591Y-161501D01*
X90409D01*
X89404Y-161633D01*
X88468Y-162021D01*
X87664Y-162638D01*
X87047Y-163442D01*
X86659Y-164378D01*
X86527Y-165383D01*
X86659Y-166388D01*
X87047Y-167325D01*
X87664Y-168129D01*
X88468Y-168746D01*
X89404Y-169134D01*
X90409Y-169266D01*
X91591D01*
X92595Y-169134D01*
X93532Y-168746D01*
D01*
X93532Y-168746D01*
X93532Y-168746D01*
Y-168746D01*
X93532Y-168746D01*
X94335Y-168130D01*
X94336Y-168129D01*
X94336Y-168129D01*
Y-168129D01*
D01*
X94336Y-168129D01*
X94366Y-168090D01*
X95046Y-167569D01*
X95882Y-167222D01*
X96682Y-167117D01*
X96780D01*
X96780Y-167117D01*
Y-167117D01*
X98617D01*
X99280Y-166985D01*
X99842Y-166609D01*
X99842Y-166609D01*
X99842Y-166609D01*
X102088Y-164363D01*
X102550Y-164555D01*
Y-164599D01*
X107450D01*
Y-164555D01*
X107912Y-164363D01*
X110158Y-166609D01*
X110720Y-166985D01*
X111383Y-167117D01*
X113120D01*
Y-167117D01*
X113120Y-167117D01*
X113218D01*
X114018Y-167222D01*
X114855Y-167569D01*
X115534Y-168090D01*
X115564Y-168129D01*
X115564Y-168129D01*
X115565Y-168130D01*
D01*
D01*
X115565D01*
Y-168130D01*
X115565D01*
X116368Y-168746D01*
X117305Y-169134D01*
X118309Y-169266D01*
X119491D01*
X120495Y-169134D01*
X121432Y-168746D01*
X122236Y-168129D01*
X122853Y-167325D01*
X123241Y-166388D01*
X123373Y-165383D01*
X123241Y-164378D01*
X122853Y-163442D01*
X122236Y-162638D01*
X121432Y-162021D01*
X120495Y-161633D01*
X119491Y-161501D01*
X118309D01*
X117305Y-161633D01*
X116368Y-162021D01*
X115565Y-162637D01*
D01*
X115565Y-162637D01*
D01*
D01*
Y-162637D01*
X115564Y-162638D01*
X115564Y-162638D01*
X115534Y-162677D01*
X114855Y-163198D01*
X114018Y-163545D01*
X113218Y-163650D01*
X113120D01*
X113120Y-163650D01*
Y-163650D01*
X112101D01*
X109726Y-161274D01*
X109163Y-160899D01*
X108500Y-160767D01*
X107450D01*
Y-160399D01*
D02*
G37*
G36*
X164743Y-149416D02*
X163789Y-149541D01*
X162900Y-149909D01*
X162137Y-150495D01*
X161552Y-151258D01*
X161184Y-152146D01*
X161058Y-153100D01*
X161184Y-154054D01*
X161552Y-154942D01*
X162137Y-155705D01*
X162900Y-156291D01*
X163789Y-156659D01*
X164743Y-156784D01*
X165696Y-156659D01*
X166585Y-156291D01*
X167348Y-155705D01*
X167933Y-154942D01*
X168301Y-154054D01*
X168427Y-153100D01*
X168301Y-152146D01*
X167933Y-151258D01*
X167348Y-150495D01*
X166585Y-149909D01*
X165696Y-149541D01*
X164743Y-149416D01*
D02*
G37*
G36*
X190600Y-83020D02*
X189492Y-83166D01*
X188460Y-83593D01*
X187574Y-84274D01*
X186893Y-85160D01*
X186466Y-86192D01*
X186320Y-87300D01*
X186466Y-88408D01*
X186893Y-89440D01*
X187574Y-90326D01*
X188460Y-91006D01*
X189492Y-91434D01*
X190600Y-91580D01*
X191708Y-91434D01*
X192740Y-91006D01*
X193626Y-90326D01*
X194307Y-89440D01*
X194734Y-88408D01*
X194880Y-87300D01*
X194734Y-86192D01*
X194307Y-85160D01*
X193626Y-84274D01*
X192740Y-83593D01*
X191708Y-83166D01*
X190600Y-83020D01*
D02*
G37*
G36*
X112296Y-28434D02*
X111115D01*
X110110Y-28566D01*
X109174Y-28954D01*
X108369Y-29571D01*
X107752Y-30375D01*
X107364Y-31312D01*
X107232Y-32316D01*
X107364Y-33321D01*
X107752Y-34258D01*
X108369Y-35062D01*
X109174Y-35679D01*
X110110Y-36067D01*
X111115Y-36199D01*
X112296D01*
X113301Y-36067D01*
X114237Y-35679D01*
X115042Y-35062D01*
X115659Y-34258D01*
X116047Y-33321D01*
X116179Y-32316D01*
X116047Y-31312D01*
X115659Y-30375D01*
X115042Y-29571D01*
X114237Y-28954D01*
X113301Y-28566D01*
X112296Y-28434D01*
D02*
G37*
G36*
X57100Y-22282D02*
X56366Y-22428D01*
X55744Y-22844D01*
X55328Y-23466D01*
X55182Y-24200D01*
X55328Y-24934D01*
X55744Y-25556D01*
X55771Y-25574D01*
X55876Y-25830D01*
Y-25837D01*
X55875Y-25844D01*
X55876D01*
Y-33193D01*
X55414Y-33384D01*
X53324Y-31293D01*
Y-25844D01*
X53325D01*
X53324Y-25837D01*
Y-25830D01*
X53429Y-25574D01*
X53456Y-25556D01*
X53872Y-24934D01*
X54018Y-24200D01*
X53872Y-23466D01*
X53456Y-22844D01*
X52834Y-22428D01*
X52100Y-22282D01*
X51366Y-22428D01*
X50744Y-22844D01*
X50328Y-23466D01*
X50182Y-24200D01*
X50328Y-24934D01*
X50744Y-25556D01*
X50770Y-25574D01*
X50876Y-25830D01*
Y-25837D01*
X50876Y-25844D01*
X50876D01*
Y-31800D01*
X50876Y-31800D01*
X50876D01*
X50970Y-32268D01*
X51235Y-32665D01*
X118435Y-99865D01*
X118832Y-100130D01*
X119300Y-100224D01*
X122756D01*
X122998Y-100550D01*
X122756Y-100876D01*
X114307D01*
X48423Y-34993D01*
Y-25844D01*
X48425D01*
X48423Y-25837D01*
Y-25830D01*
X48529Y-25574D01*
X48556Y-25556D01*
X48972Y-24934D01*
X49118Y-24200D01*
X48972Y-23466D01*
X48556Y-22844D01*
X47934Y-22428D01*
X47200Y-22282D01*
X46466Y-22428D01*
X45844Y-22844D01*
X45428Y-23466D01*
X45282Y-24200D01*
X45428Y-24934D01*
X45844Y-25556D01*
X45871Y-25574D01*
X45976Y-25830D01*
Y-25837D01*
X45976Y-25844D01*
X45976D01*
Y-34493D01*
X45515Y-34684D01*
X43523Y-32693D01*
Y-25844D01*
X43525D01*
X43523Y-25837D01*
Y-25830D01*
X43630Y-25574D01*
X43656Y-25556D01*
X44072Y-24934D01*
X44218Y-24200D01*
X44072Y-23466D01*
X43656Y-22844D01*
X43034Y-22428D01*
X42300Y-22282D01*
X41566Y-22428D01*
X40944Y-22844D01*
X40528Y-23466D01*
X40382Y-24200D01*
X40528Y-24934D01*
X40944Y-25556D01*
X40971Y-25574D01*
X41076Y-25830D01*
Y-25837D01*
X41076Y-25844D01*
X41076D01*
Y-33200D01*
X41170Y-33668D01*
X41435Y-34065D01*
X113435Y-106065D01*
X113832Y-106330D01*
X114300Y-106423D01*
X122856D01*
Y-106424D01*
X122863Y-106423D01*
X122870D01*
X123126Y-106529D01*
X123144Y-106556D01*
X123766Y-106972D01*
X124500Y-107118D01*
X124802Y-107058D01*
X125063Y-107319D01*
X125209Y-108053D01*
X125625Y-108675D01*
X126247Y-109091D01*
X126981Y-109237D01*
X127715Y-109091D01*
X128337Y-108675D01*
X128447Y-108511D01*
X128947D01*
X129044Y-108656D01*
X129666Y-109072D01*
X130400Y-109218D01*
X131134Y-109072D01*
X131756Y-108656D01*
X132172Y-108034D01*
X132318Y-107300D01*
X132172Y-106566D01*
X131756Y-105944D01*
X131134Y-105528D01*
X130400Y-105382D01*
X130224Y-104494D01*
Y-79700D01*
X130130Y-79232D01*
X129865Y-78835D01*
X109828Y-58798D01*
X109829Y-58797D01*
X109822Y-58792D01*
X109818Y-58787D01*
X109712Y-58531D01*
X109718Y-58500D01*
X109572Y-57766D01*
X109156Y-57144D01*
X108534Y-56728D01*
X107800Y-56582D01*
X107066Y-56728D01*
X106444Y-57144D01*
X106028Y-57766D01*
X106000Y-57907D01*
X105500D01*
X105472Y-57766D01*
X105056Y-57144D01*
X104434Y-56728D01*
X103700Y-56582D01*
X102966Y-56728D01*
X102344Y-57144D01*
X101928Y-57766D01*
X101782Y-58500D01*
X101928Y-59234D01*
X102344Y-59856D01*
X102966Y-60272D01*
X103700Y-60418D01*
X103732Y-60412D01*
X103987Y-60518D01*
X103992Y-60522D01*
X103997Y-60529D01*
X103998Y-60528D01*
X125758Y-82288D01*
Y-93948D01*
X125317Y-94183D01*
X125234Y-94128D01*
X124500Y-93982D01*
X123766Y-94128D01*
X123144Y-94544D01*
X123126Y-94571D01*
X122870Y-94677D01*
X122863D01*
X122856Y-94675D01*
Y-94677D01*
X119339D01*
X58324Y-33661D01*
Y-25844D01*
X58324D01*
X58324Y-25837D01*
Y-25830D01*
X58429Y-25574D01*
X58456Y-25556D01*
X58872Y-24934D01*
X59018Y-24200D01*
X58872Y-23466D01*
X58456Y-22844D01*
X57834Y-22428D01*
X57100Y-22282D01*
D02*
G37*
G36*
X151996Y-28434D02*
X150815D01*
X149810Y-28566D01*
X148873Y-28954D01*
X148069Y-29571D01*
X147452Y-30375D01*
X147064Y-31312D01*
X146932Y-32316D01*
X147064Y-33321D01*
X147452Y-34258D01*
X148069Y-35062D01*
X148873Y-35679D01*
X149810Y-36067D01*
X150815Y-36199D01*
X151996D01*
X153001Y-36067D01*
X153937Y-35679D01*
X154742Y-35062D01*
X155359Y-34258D01*
X155747Y-33321D01*
X155879Y-32316D01*
X155747Y-31312D01*
X155359Y-30375D01*
X154742Y-29571D01*
X153937Y-28954D01*
X153001Y-28566D01*
X151996Y-28434D01*
D02*
G37*
G36*
X100485Y-28434D02*
X99304D01*
X98299Y-28566D01*
X97363Y-28954D01*
X96558Y-29571D01*
X95941Y-30375D01*
X95553Y-31312D01*
X95421Y-32316D01*
X95553Y-33321D01*
X95941Y-34258D01*
X96558Y-35062D01*
X97363Y-35679D01*
X98299Y-36067D01*
X99304Y-36199D01*
X100485D01*
X101490Y-36067D01*
X102426Y-35679D01*
X103231Y-35062D01*
X103848Y-34258D01*
X104236Y-33321D01*
X104368Y-32316D01*
X104236Y-31312D01*
X103848Y-30375D01*
X103231Y-29571D01*
X102426Y-28954D01*
X101490Y-28566D01*
X100485Y-28434D01*
D02*
G37*
G36*
X145500Y-8556D02*
X144321Y-8672D01*
X143187Y-9016D01*
X142142Y-9575D01*
X141226Y-10326D01*
X140474Y-11242D01*
X139916Y-12287D01*
X139572Y-13421D01*
X139456Y-14600D01*
X139572Y-15779D01*
X139916Y-16913D01*
X140474Y-17958D01*
X141226Y-18874D01*
X142142Y-19625D01*
X143187Y-20184D01*
X144321Y-20528D01*
X145500Y-20644D01*
X146679Y-20528D01*
X147813Y-20184D01*
X148858Y-19625D01*
X149774Y-18874D01*
X150525Y-17958D01*
X151084Y-16913D01*
X151428Y-15779D01*
X151544Y-14600D01*
X151428Y-13421D01*
X151084Y-12287D01*
X150525Y-11242D01*
X149774Y-10326D01*
X148858Y-9575D01*
X147813Y-9016D01*
X146679Y-8672D01*
X145500Y-8556D01*
D02*
G37*
G36*
X105800Y-8556D02*
X104621Y-8672D01*
X103487Y-9016D01*
X102442Y-9575D01*
X101526Y-10326D01*
X100775Y-11242D01*
X100216Y-12287D01*
X99872Y-13421D01*
X99756Y-14600D01*
X99872Y-15779D01*
X100216Y-16913D01*
X100775Y-17958D01*
X101526Y-18874D01*
X102442Y-19625D01*
X103487Y-20184D01*
X104621Y-20528D01*
X105800Y-20644D01*
X106979Y-20528D01*
X108113Y-20184D01*
X109158Y-19625D01*
X110074Y-18874D01*
X110826Y-17958D01*
X111384Y-16913D01*
X111728Y-15779D01*
X111844Y-14600D01*
X111728Y-13421D01*
X111384Y-12287D01*
X110826Y-11242D01*
X110074Y-10326D01*
X109158Y-9575D01*
X108113Y-9016D01*
X106979Y-8672D01*
X105800Y-8556D01*
D02*
G37*
G36*
X35000Y-22282D02*
X34266Y-22428D01*
X33644Y-22844D01*
X33228Y-23466D01*
X33082Y-24200D01*
X33228Y-24934D01*
X33644Y-25556D01*
X34266Y-25972D01*
X35000Y-26118D01*
X35734Y-25972D01*
X36356Y-25556D01*
X36772Y-24934D01*
X36918Y-24200D01*
X36772Y-23466D01*
X36356Y-22844D01*
X35734Y-22428D01*
X35000Y-22282D01*
D02*
G37*
G36*
X77400Y-18882D02*
X76666Y-19028D01*
X76044Y-19444D01*
X75628Y-20066D01*
X75482Y-20800D01*
X75628Y-21534D01*
X76044Y-22156D01*
X76666Y-22572D01*
X77400Y-22718D01*
X78134Y-22572D01*
X78756Y-22156D01*
X79172Y-21534D01*
X79318Y-20800D01*
X79172Y-20066D01*
X78756Y-19444D01*
X78134Y-19028D01*
X77400Y-18882D01*
D02*
G37*
G36*
X24300Y-28382D02*
X23566Y-28528D01*
X22944Y-28944D01*
X22528Y-29566D01*
X22382Y-30300D01*
X22528Y-31034D01*
X22944Y-31656D01*
X23566Y-32072D01*
X24300Y-32218D01*
X25034Y-32072D01*
X25656Y-31656D01*
X25674Y-31629D01*
X25930Y-31523D01*
X25936D01*
X25944Y-31525D01*
Y-31523D01*
X32893D01*
X81535Y-80165D01*
X81390Y-80644D01*
X81176Y-80686D01*
X80024D01*
X79500Y-80582D01*
X78976Y-80686D01*
X78300D01*
X78027Y-80741D01*
X77795Y-80895D01*
X77641Y-81127D01*
X77586Y-81400D01*
Y-82479D01*
X77582Y-82500D01*
X77586Y-82521D01*
Y-84579D01*
X77582Y-84600D01*
X77586Y-84621D01*
Y-85800D01*
X77641Y-86073D01*
X77795Y-86305D01*
X78027Y-86459D01*
X78300Y-86514D01*
X79479D01*
X79500Y-86518D01*
X79521Y-86514D01*
X81679D01*
X81700Y-86518D01*
X81721Y-86514D01*
X82800D01*
X83073Y-86459D01*
X83305Y-86305D01*
X83459Y-86073D01*
X83514Y-85800D01*
Y-85124D01*
X83618Y-84600D01*
X83514Y-84076D01*
Y-83024D01*
X83556Y-82810D01*
X84035Y-82665D01*
X89254Y-87885D01*
X89019Y-88326D01*
X88800Y-88282D01*
X88066Y-88428D01*
X87444Y-88844D01*
X87028Y-89466D01*
X86882Y-90200D01*
X86913Y-90357D01*
X86866Y-90428D01*
X86866D01*
X86866Y-90428D01*
X86244Y-90844D01*
X85828Y-91466D01*
X85682Y-92200D01*
X85828Y-92934D01*
X86244Y-93556D01*
X86866Y-93972D01*
X87600Y-94118D01*
X88334Y-93972D01*
X88800Y-93661D01*
X89266Y-93972D01*
X90000Y-94118D01*
X90734Y-93972D01*
X91356Y-93556D01*
X91772Y-92934D01*
X91918Y-92200D01*
X91772Y-91466D01*
X91356Y-90844D01*
X90734Y-90428D01*
D01*
X90714Y-90222D01*
X90718Y-90200D01*
X90705Y-90136D01*
X90705Y-90136D01*
X90684Y-90030D01*
X90675Y-89981D01*
X91115Y-89746D01*
X113754Y-112385D01*
X113519Y-112826D01*
X113300Y-112782D01*
X112566Y-112928D01*
X111944Y-113344D01*
X111528Y-113966D01*
X111382Y-114700D01*
X111528Y-115434D01*
X111944Y-116056D01*
X112566Y-116472D01*
X113300Y-116618D01*
D01*
X113392Y-116665D01*
X113569Y-117093D01*
X113493Y-117277D01*
X106807D01*
X104528Y-114998D01*
X104529Y-114997D01*
X104522Y-114992D01*
X104518Y-114987D01*
X104412Y-114732D01*
X104418Y-114700D01*
X104272Y-113966D01*
X103856Y-113344D01*
X103234Y-112928D01*
X102500Y-112782D01*
X101766Y-112928D01*
X101144Y-113344D01*
X100728Y-113966D01*
X100582Y-114700D01*
X100728Y-115434D01*
X101144Y-116056D01*
X101766Y-116472D01*
X102500Y-116618D01*
X102532Y-116612D01*
X102787Y-116718D01*
X102792Y-116722D01*
X102797Y-116729D01*
X102797D01*
X102798D01*
X104884Y-118815D01*
X104693Y-119276D01*
X101907D01*
X97628Y-114998D01*
X97629Y-114997D01*
X97622Y-114992D01*
X97618Y-114987D01*
X97512Y-114732D01*
X97518Y-114700D01*
X97372Y-113966D01*
X96956Y-113344D01*
X96334Y-112928D01*
X95600Y-112782D01*
X94866Y-112928D01*
X94244Y-113344D01*
X93828Y-113966D01*
X93682Y-114700D01*
X93828Y-115434D01*
X94244Y-116056D01*
X94866Y-116472D01*
X95600Y-116618D01*
X95631Y-116612D01*
X95887Y-116718D01*
X95892Y-116722D01*
X95897Y-116729D01*
X95897D01*
X95898D01*
X99984Y-120815D01*
X99793Y-121276D01*
X88107D01*
X81829Y-114998D01*
Y-114997D01*
Y-114997D01*
X81822Y-114992D01*
X81818Y-114987D01*
X81712Y-114732D01*
X81718Y-114700D01*
X81572Y-113966D01*
X81156Y-113344D01*
X80534Y-112928D01*
X79800Y-112782D01*
X79066Y-112928D01*
X78444Y-113344D01*
X78028Y-113966D01*
X77882Y-114700D01*
X78028Y-115434D01*
X78444Y-116056D01*
X79066Y-116472D01*
X79800Y-116618D01*
X79831Y-116612D01*
X80087Y-116718D01*
X80092Y-116722D01*
X80097Y-116729D01*
X80097D01*
X80098D01*
X86735Y-123365D01*
X86973Y-123524D01*
X87132Y-123630D01*
X87600Y-123723D01*
X103863D01*
X104019Y-123958D01*
X104130Y-124164D01*
X103728Y-124766D01*
X103582Y-125500D01*
X103728Y-126234D01*
X104144Y-126856D01*
X104766Y-127272D01*
X105500Y-127418D01*
X106234Y-127272D01*
X106856Y-126856D01*
X107272Y-126234D01*
X107418Y-125500D01*
X107272Y-124766D01*
X106856Y-124144D01*
X106234Y-123728D01*
D01*
X106234D01*
X106234Y-123725D01*
X106234Y-123723D01*
X148400D01*
X148868Y-123630D01*
X149265Y-123365D01*
X149265Y-123365D01*
X149265Y-123365D01*
X158007Y-114623D01*
X158456D01*
Y-114625D01*
X158464Y-114623D01*
X158470D01*
X158726Y-114729D01*
X158744Y-114756D01*
X159366Y-115172D01*
X160100Y-115318D01*
X160834Y-115172D01*
X161456Y-114756D01*
X161872Y-114134D01*
X162018Y-113400D01*
X161872Y-112666D01*
X161456Y-112044D01*
X160834Y-111628D01*
X160100Y-111482D01*
X159366Y-111628D01*
X158759Y-112033D01*
X158274Y-111912D01*
X158180Y-111735D01*
X158199Y-111707D01*
X158345Y-110973D01*
X158199Y-110239D01*
X157783Y-109617D01*
X157161Y-109201D01*
X156987Y-109167D01*
X156842Y-108688D01*
X159065Y-106465D01*
X159330Y-106068D01*
X159423Y-105600D01*
Y-96244D01*
X159424D01*
X159423Y-96236D01*
Y-96230D01*
X159529Y-95974D01*
X159556Y-95956D01*
X159972Y-95334D01*
X160118Y-94600D01*
X159972Y-93866D01*
X159556Y-93244D01*
X158934Y-92828D01*
X158200Y-92682D01*
X158040Y-92714D01*
X157686Y-92360D01*
X157718Y-92200D01*
X157572Y-91466D01*
X157156Y-90844D01*
X156534Y-90428D01*
X155800Y-90282D01*
X155066Y-90428D01*
X154444Y-90844D01*
X154028Y-91466D01*
X153882Y-92200D01*
X154028Y-92934D01*
X154444Y-93556D01*
X154471Y-93574D01*
X154577Y-93830D01*
Y-93836D01*
X154576Y-93844D01*
X154577D01*
Y-99911D01*
X154098Y-100056D01*
X153956Y-99844D01*
X153334Y-99428D01*
X152600Y-99282D01*
X152524Y-98897D01*
Y-62300D01*
X152430Y-61832D01*
X152165Y-61435D01*
X149529Y-58798D01*
Y-58797D01*
Y-58797D01*
X149522Y-58792D01*
X149518Y-58787D01*
X149412Y-58532D01*
X149418Y-58500D01*
X149272Y-57766D01*
X148856Y-57144D01*
X148234Y-56728D01*
X147500Y-56582D01*
X146766Y-56728D01*
X146144Y-57144D01*
X145728Y-57766D01*
X145700Y-57907D01*
X145200D01*
X145172Y-57766D01*
X144756Y-57144D01*
X144134Y-56728D01*
X143400Y-56582D01*
X142666Y-56728D01*
X142044Y-57144D01*
X141628Y-57766D01*
X141482Y-58500D01*
X141628Y-59234D01*
X142044Y-59856D01*
X142666Y-60272D01*
X143400Y-60418D01*
X143431Y-60412D01*
X143687Y-60518D01*
X143692Y-60522D01*
X143697Y-60529D01*
X143698Y-60528D01*
X147977Y-64807D01*
Y-99556D01*
X147976D01*
X147977Y-99563D01*
Y-99570D01*
X147871Y-99826D01*
X147844Y-99844D01*
X147428Y-100466D01*
X147282Y-101200D01*
X147428Y-101934D01*
X147844Y-102556D01*
X148466Y-102972D01*
X149200Y-103118D01*
X149934Y-102972D01*
X150556Y-102556D01*
X150650Y-102416D01*
X151150D01*
X151244Y-102556D01*
X151866Y-102972D01*
X152600Y-103118D01*
X153334Y-102972D01*
X153956Y-102556D01*
X154098Y-102344D01*
X154577Y-102489D01*
Y-103893D01*
X143193Y-115277D01*
X126373D01*
X126137Y-114836D01*
X126472Y-114334D01*
X126618Y-113600D01*
X126472Y-112866D01*
X126056Y-112244D01*
X125434Y-111828D01*
X124700Y-111682D01*
X123966Y-111828D01*
X123344Y-112244D01*
X123326Y-112271D01*
X123070Y-112376D01*
X123064D01*
X123056Y-112375D01*
Y-112376D01*
X117207D01*
X34265Y-29435D01*
X33868Y-29170D01*
X33400Y-29076D01*
X25944D01*
Y-29076D01*
X25936Y-29076D01*
X25930D01*
X25674Y-28971D01*
X25656Y-28944D01*
X25034Y-28528D01*
X24300Y-28382D01*
D02*
G37*
G36*
X127000Y-62282D02*
X126266Y-62428D01*
X125644Y-62844D01*
X125228Y-63466D01*
X125082Y-64200D01*
X125228Y-64934D01*
X125644Y-65556D01*
X126266Y-65972D01*
X127000Y-66118D01*
X127734Y-65972D01*
X128356Y-65556D01*
X128772Y-64934D01*
X128918Y-64200D01*
X128772Y-63466D01*
X128356Y-62844D01*
X127734Y-62428D01*
X127000Y-62282D01*
D02*
G37*
G36*
X175500Y-80382D02*
X174766Y-80528D01*
X174144Y-80944D01*
X173728Y-81566D01*
X173582Y-82300D01*
X173728Y-83034D01*
X174144Y-83656D01*
X174766Y-84072D01*
X175500Y-84218D01*
X176234Y-84072D01*
X176856Y-83656D01*
X177272Y-83034D01*
X177418Y-82300D01*
X177272Y-81566D01*
X176856Y-80944D01*
X176234Y-80528D01*
X175500Y-80382D01*
D02*
G37*
G36*
X110100Y-79982D02*
X109366Y-80128D01*
X108744Y-80544D01*
X108328Y-81166D01*
X108182Y-81900D01*
X108328Y-82634D01*
X108744Y-83256D01*
X109366Y-83672D01*
X110100Y-83818D01*
X110834Y-83672D01*
X111456Y-83256D01*
X111872Y-82634D01*
X112018Y-81900D01*
X111872Y-81166D01*
X111456Y-80544D01*
X110834Y-80128D01*
X110100Y-79982D01*
D02*
G37*
G36*
X6000Y-38220D02*
X4892Y-38366D01*
X3860Y-38794D01*
X2974Y-39474D01*
X2293Y-40360D01*
X1866Y-41392D01*
X1720Y-42500D01*
X1866Y-43608D01*
X2293Y-44640D01*
X2974Y-45526D01*
X3860Y-46207D01*
X4892Y-46634D01*
X6000Y-46780D01*
X7108Y-46634D01*
X8140Y-46207D01*
X9026Y-45526D01*
X9707Y-44640D01*
X10134Y-43608D01*
X10280Y-42500D01*
X10134Y-41392D01*
X9707Y-40360D01*
X9026Y-39474D01*
X8140Y-38794D01*
X7108Y-38366D01*
X6000Y-38220D01*
D02*
G37*
G36*
X140185Y-28434D02*
X139004D01*
X137999Y-28566D01*
X137063Y-28954D01*
X136258Y-29571D01*
X135641Y-30375D01*
X135253Y-31312D01*
X135121Y-32316D01*
X135253Y-33321D01*
X135641Y-34258D01*
X136258Y-35062D01*
X137063Y-35679D01*
X137999Y-36067D01*
X138004Y-36068D01*
X137972Y-36567D01*
X117533D01*
X116870Y-36699D01*
X116307Y-37074D01*
X115158Y-38224D01*
X115153Y-38219D01*
X115108Y-38274D01*
X113651Y-39731D01*
X113082Y-40111D01*
X112365Y-40254D01*
X112296Y-40245D01*
Y-40245D01*
X112296Y-40245D01*
X111115D01*
X110110Y-40377D01*
X109174Y-40765D01*
X108369Y-41382D01*
X107752Y-42186D01*
X107364Y-43123D01*
X107232Y-44128D01*
X107364Y-45132D01*
X107752Y-46069D01*
X108369Y-46873D01*
X109174Y-47490D01*
X110110Y-47878D01*
X111115Y-48010D01*
X112296D01*
X113301Y-47878D01*
X114237Y-47490D01*
X115042Y-46873D01*
X115659Y-46069D01*
X116047Y-45132D01*
X116047Y-45132D01*
D01*
D01*
X116047D01*
X116047Y-45132D01*
X116179Y-44129D01*
X116179Y-44128D01*
X116179D01*
X116166Y-44032D01*
X116321Y-42858D01*
X116811Y-41674D01*
X117473Y-40811D01*
X118251Y-40033D01*
X144860D01*
X145638Y-40811D01*
X146300Y-41674D01*
X146790Y-42858D01*
X146945Y-44032D01*
X146932Y-44128D01*
D01*
D01*
D01*
X146932D01*
D01*
D01*
X146932D01*
X146932Y-44128D01*
X146932Y-44129D01*
Y-44129D01*
D01*
D01*
X146932D01*
D01*
X146932D01*
D01*
D01*
X147064Y-45132D01*
X147452Y-46069D01*
X148069Y-46873D01*
X148873Y-47490D01*
X149810Y-47878D01*
X150815Y-48010D01*
X151996D01*
X151996Y-48011D01*
Y-48010D01*
X152065Y-48001D01*
X152568Y-48101D01*
X166112Y-61646D01*
Y-99100D01*
X166112Y-99100D01*
X166112D01*
X166263Y-99861D01*
X166694Y-100506D01*
X170450Y-104262D01*
Y-105700D01*
X170912D01*
Y-124434D01*
X146162Y-149184D01*
X145831Y-149321D01*
X145084Y-149419D01*
X145057Y-149416D01*
Y-149414D01*
X145031Y-149419D01*
X144104Y-149541D01*
X143215Y-149909D01*
X142452Y-150495D01*
X142097Y-150958D01*
X141623Y-150797D01*
Y-141344D01*
X141624D01*
X141623Y-141337D01*
Y-141330D01*
X141729Y-141074D01*
X141756Y-141056D01*
X142172Y-140434D01*
X142318Y-139700D01*
X142172Y-138966D01*
X141756Y-138344D01*
X141134Y-137928D01*
X140400Y-137782D01*
X140233Y-137815D01*
X139918Y-137500D01*
X139772Y-136766D01*
X139356Y-136144D01*
X138734Y-135728D01*
X138000Y-135582D01*
X137819Y-135618D01*
X137465Y-135265D01*
X137518Y-135000D01*
X137372Y-134266D01*
X136956Y-133644D01*
X136334Y-133228D01*
X135600Y-133082D01*
X134866Y-133228D01*
X134244Y-133644D01*
X133828Y-134266D01*
X133682Y-135000D01*
X133828Y-135734D01*
X134244Y-136356D01*
X134271Y-136374D01*
X134377Y-136630D01*
Y-136636D01*
X134376Y-136644D01*
X134377D01*
Y-166400D01*
X134470Y-166868D01*
X134735Y-167265D01*
X135672Y-168202D01*
X135671Y-168203D01*
X135678Y-168208D01*
X135682Y-168213D01*
X135788Y-168468D01*
X135782Y-168500D01*
X135928Y-169234D01*
X136344Y-169856D01*
X136966Y-170272D01*
X137700Y-170418D01*
X138434Y-170272D01*
X139056Y-169856D01*
X139472Y-169234D01*
X139618Y-168500D01*
X139500Y-167907D01*
X139941Y-167671D01*
X140471Y-168202D01*
Y-168203D01*
Y-168203D01*
X140478Y-168208D01*
X140482Y-168213D01*
X140588Y-168468D01*
X140582Y-168500D01*
X140728Y-169234D01*
X141144Y-169856D01*
X141766Y-170272D01*
X142500Y-170418D01*
X143234Y-170272D01*
X143856Y-169856D01*
X144272Y-169234D01*
X144418Y-168500D01*
X144272Y-167766D01*
X143950Y-167284D01*
D01*
Y-167284D01*
X144336Y-166966D01*
X156171Y-178802D01*
Y-178803D01*
Y-178803D01*
X156178Y-178808D01*
X156182Y-178813D01*
X156288Y-179069D01*
X156282Y-179100D01*
X156428Y-179834D01*
X156844Y-180456D01*
X157466Y-180872D01*
X158200Y-181018D01*
X158934Y-180872D01*
X159556Y-180456D01*
X159972Y-179834D01*
X160118Y-179100D01*
X159972Y-178366D01*
X159556Y-177744D01*
X158934Y-177328D01*
X158200Y-177182D01*
X158168Y-177188D01*
X157913Y-177082D01*
X157908Y-177078D01*
X157903Y-177071D01*
X157902Y-177072D01*
X141623Y-160793D01*
Y-155403D01*
X142097Y-155242D01*
X142452Y-155705D01*
X143215Y-156291D01*
X144104Y-156659D01*
X145057Y-156784D01*
X146011Y-156659D01*
X146900Y-156291D01*
X147663Y-155705D01*
X148248Y-154942D01*
X148616Y-154054D01*
X148738Y-153127D01*
X148743Y-153100D01*
X148742D01*
X148738Y-153073D01*
X148837Y-152326D01*
X148973Y-151996D01*
X174306Y-126663D01*
X174737Y-126018D01*
X174888Y-125258D01*
X174888Y-125258D01*
X174888Y-125258D01*
Y-125258D01*
Y-105700D01*
X175350D01*
Y-101500D01*
X173312D01*
X172715Y-100903D01*
X172900Y-100528D01*
X172906Y-100528D01*
X177836D01*
X178460Y-101006D01*
X179492Y-101434D01*
X180600Y-101580D01*
X181708Y-101434D01*
X182740Y-101006D01*
X183364Y-100528D01*
X187836D01*
X188460Y-101006D01*
X189492Y-101434D01*
X190600Y-101580D01*
X191708Y-101434D01*
X192740Y-101006D01*
X193626Y-100326D01*
X194307Y-99440D01*
X194734Y-98408D01*
X194880Y-97300D01*
X194734Y-96192D01*
X194307Y-95160D01*
X193626Y-94274D01*
X192740Y-93594D01*
X191708Y-93166D01*
X190600Y-93020D01*
X189492Y-93166D01*
X188460Y-93594D01*
X187836Y-94072D01*
X183364D01*
X182740Y-93594D01*
X181708Y-93166D01*
X180600Y-93020D01*
X179492Y-93166D01*
X178460Y-93594D01*
X177836Y-94072D01*
X172901D01*
X172065Y-94182D01*
X171287Y-94505D01*
X170618Y-95018D01*
X170618Y-95019D01*
X170562Y-95092D01*
X170088Y-94931D01*
Y-66183D01*
X170529Y-65947D01*
X170566Y-65972D01*
X171300Y-66118D01*
X172034Y-65972D01*
X172656Y-65556D01*
X173072Y-64934D01*
X173218Y-64200D01*
X173072Y-63466D01*
X172656Y-62844D01*
X172034Y-62428D01*
X171300Y-62282D01*
X170566Y-62428D01*
X170529Y-62453D01*
X170088Y-62217D01*
Y-60822D01*
X169937Y-60061D01*
X169506Y-59416D01*
X156398Y-46308D01*
X156021Y-45398D01*
X155866Y-44223D01*
X155879Y-44128D01*
D01*
X155879D01*
X155879Y-44128D01*
X155879Y-44128D01*
X155879D01*
X155879Y-44127D01*
X155747Y-43123D01*
Y-43123D01*
D01*
D01*
D01*
X155746Y-43123D01*
X155359Y-42186D01*
X154742Y-41382D01*
X153937Y-40765D01*
X153001Y-40377D01*
X151996Y-40245D01*
X150815D01*
X150815Y-40245D01*
Y-40245D01*
X150746Y-40254D01*
X150029Y-40111D01*
X149460Y-39731D01*
X148003Y-38274D01*
X147958Y-38219D01*
X147953Y-38224D01*
X146803Y-37074D01*
X146241Y-36699D01*
X145578Y-36567D01*
X141217D01*
X141185Y-36068D01*
X141190Y-36067D01*
X142126Y-35679D01*
X142931Y-35062D01*
X143548Y-34258D01*
X143936Y-33321D01*
X144068Y-32316D01*
X143936Y-31312D01*
X143548Y-30375D01*
X142931Y-29571D01*
X142126Y-28954D01*
X141190Y-28566D01*
X140185Y-28434D01*
D02*
G37*
G36*
X6000Y-48220D02*
X4892Y-48366D01*
X3860Y-48794D01*
X2974Y-49474D01*
X2293Y-50360D01*
X1866Y-51392D01*
X1720Y-52500D01*
X1866Y-53608D01*
X2293Y-54640D01*
X2974Y-55526D01*
X3860Y-56207D01*
X4892Y-56634D01*
X6000Y-56780D01*
X7108Y-56634D01*
X8140Y-56207D01*
X9026Y-55526D01*
X9707Y-54640D01*
X10134Y-53608D01*
X10280Y-52500D01*
X10134Y-51392D01*
X9707Y-50360D01*
X9026Y-49474D01*
X8140Y-48794D01*
X7108Y-48366D01*
X6000Y-48220D01*
D02*
G37*
G36*
X172700Y-40582D02*
X171966Y-40728D01*
X171344Y-41144D01*
X170928Y-41766D01*
X170782Y-42500D01*
X170902Y-43101D01*
X170624Y-43517D01*
X170566Y-43528D01*
X169944Y-43944D01*
X169528Y-44566D01*
X169382Y-45300D01*
X169528Y-46034D01*
X169944Y-46656D01*
X170566Y-47072D01*
X171300Y-47218D01*
X172034Y-47072D01*
X172656Y-46656D01*
X173072Y-46034D01*
X173218Y-45300D01*
X173072Y-44566D01*
X173172Y-44324D01*
X173434Y-44272D01*
X174056Y-43856D01*
X174472Y-43234D01*
X174618Y-42500D01*
X174472Y-41766D01*
X174056Y-41144D01*
X173434Y-40728D01*
X172700Y-40582D01*
D02*
G37*
%LPD*%
D11*
X24782Y-29818D02*
G03*
X25944Y-30300I1163J1163D01*
G01*
D02*
G03*
X24782Y-30782I0J-1644D01*
G01*
X15681Y-119200D02*
G03*
X16163Y-120363I1644J0D01*
G01*
D02*
G03*
X15000Y-119881I-1163J-1163D01*
G01*
X14518Y-119682D02*
G03*
X13358Y-119201I-1161J-1161D01*
G01*
X13354D02*
G03*
X14518Y-118718I0J1647D01*
G01*
X15482Y-125018D02*
G03*
X16644Y-125500I1163J1163D01*
G01*
D02*
G03*
X15482Y-125982I0J-1644D01*
G01*
X14518D02*
G03*
X13356Y-125500I-1163J-1163D01*
G01*
D02*
G03*
X14518Y-125018I0J1644D01*
G01*
X87518Y-140982D02*
G03*
X86356Y-140500I-1163J-1163D01*
G01*
D02*
G03*
X87518Y-140018I0J1644D01*
G01*
X82319Y-136500D02*
G03*
X81837Y-135337I-1644J0D01*
G01*
D02*
G03*
X83000Y-135819I1163J1163D01*
G01*
X137019Y-168500D02*
G03*
X136537Y-167337I-1644J0D01*
G01*
D02*
G03*
X137700Y-167819I1163J1163D01*
G01*
X141819Y-168500D02*
G03*
X141337Y-167337I-1644J0D01*
G01*
D02*
G03*
X142500Y-167819I1163J1163D01*
G01*
X136082Y-135482D02*
G03*
X135600Y-136644I1163J-1163D01*
G01*
D02*
G03*
X135118Y-135482I-1644J0D01*
G01*
X140882Y-140182D02*
G03*
X140400Y-141344I1163J-1163D01*
G01*
D02*
G03*
X139918Y-140182I-1644J0D01*
G01*
X157519Y-179100D02*
G03*
X157037Y-177937I-1644J0D01*
G01*
D02*
G03*
X158200Y-178419I1163J1163D01*
G01*
X42782Y-24682D02*
G03*
X42300Y-25844I1163J-1163D01*
G01*
D02*
G03*
X41818Y-24682I-1644J0D01*
G01*
X47682D02*
G03*
X47200Y-25844I1163J-1163D01*
G01*
D02*
G03*
X46718Y-24682I-1644J0D01*
G01*
X52582D02*
G03*
X52100Y-25844I1163J-1163D01*
G01*
D02*
G03*
X51618Y-24682I-1644J0D01*
G01*
X57582D02*
G03*
X57100Y-25844I1163J-1163D01*
G01*
D02*
G03*
X56618Y-24682I-1644J0D01*
G01*
X124018Y-96382D02*
G03*
X122856Y-95900I-1163J-1163D01*
G01*
D02*
G03*
X124018Y-95418I0J1644D01*
G01*
Y-99482D02*
G03*
X122856Y-99000I-1163J-1163D01*
G01*
D02*
G03*
X124018Y-98518I0J1644D01*
G01*
Y-102582D02*
G03*
X122856Y-102100I-1163J-1163D01*
G01*
D02*
G03*
X124018Y-101618I0J1644D01*
G01*
Y-105682D02*
G03*
X122856Y-105200I-1163J-1163D01*
G01*
D02*
G03*
X124018Y-104718I0J1644D01*
G01*
X96281Y-114700D02*
G03*
X96763Y-115863I1644J0D01*
G01*
D02*
G03*
X95600Y-115381I-1163J-1163D01*
G01*
X156427Y-111654D02*
G03*
X155264Y-112136I0J-1644D01*
G01*
D02*
G03*
X155746Y-110973I-1163J1163D01*
G01*
X159618Y-113882D02*
G03*
X158456Y-113400I-1163J-1163D01*
G01*
D02*
G03*
X159618Y-112918I0J1644D01*
G01*
X80481Y-114700D02*
G03*
X80963Y-115863I1644J0D01*
G01*
D02*
G03*
X79800Y-115381I-1163J-1163D01*
G01*
X103181Y-114700D02*
G03*
X103663Y-115863I1644J0D01*
G01*
D02*
G03*
X102500Y-115381I-1163J-1163D01*
G01*
X113981Y-114700D02*
G03*
X114463Y-115863I1644J0D01*
G01*
D02*
G03*
X113300Y-115381I-1163J-1163D01*
G01*
X158682Y-95082D02*
G03*
X158200Y-96244I1163J-1163D01*
G01*
D02*
G03*
X157718Y-95082I-1644J0D01*
G01*
X156282Y-92682D02*
G03*
X155800Y-93844I1163J-1163D01*
G01*
D02*
G03*
X155318Y-92682I-1644J0D01*
G01*
X126499Y-106837D02*
G03*
X126981Y-105675I-1163J1163D01*
G01*
D02*
G03*
X127463Y-106837I1644J0D01*
G01*
X104381Y-58500D02*
G03*
X104863Y-59663I1644J0D01*
G01*
D02*
G03*
X103700Y-59181I-1163J-1163D01*
G01*
X108481Y-58500D02*
G03*
X108963Y-59663I1644J0D01*
G01*
D02*
G03*
X107800Y-59181I-1163J-1163D01*
G01*
X148181Y-58500D02*
G03*
X148663Y-59663I1644J0D01*
G01*
D02*
G03*
X147500Y-59181I-1163J-1163D01*
G01*
X144081Y-58500D02*
G03*
X144563Y-59663I1644J0D01*
G01*
D02*
G03*
X143400Y-59181I-1163J-1163D01*
G01*
X151919Y-101200D02*
G03*
X151437Y-100037I-1644J0D01*
G01*
D02*
G03*
X152600Y-100519I1163J1163D01*
G01*
X148718Y-100718D02*
G03*
X149200Y-99556I-1163J1163D01*
G01*
D02*
G03*
X149682Y-100718I1644J0D01*
G01*
X129719Y-107300D02*
G03*
X129237Y-106137I-1644J0D01*
G01*
D02*
G03*
X130400Y-106619I1163J1163D01*
G01*
X138482Y-137982D02*
G03*
X138000Y-139144I1163J-1163D01*
G01*
D02*
G03*
X137518Y-137982I-1644J0D01*
G01*
X124218Y-114082D02*
G03*
X123056Y-113600I-1163J-1163D01*
G01*
D02*
G03*
X124218Y-113118I0J1644D01*
G01*
X10986Y-124864D02*
G03*
X12523Y-125500I1536J1536D01*
G01*
D02*
G03*
X10986Y-126136I0J-2173D01*
G01*
Y-118564D02*
G03*
X12523Y-119201I1536J1536D01*
G01*
D02*
G03*
X10986Y-119837I0J-2173D01*
G01*
X174029Y-96851D02*
G03*
X175346Y-97861I1877J1084D01*
G01*
X175353Y-97863D02*
G03*
X173700Y-98080I-564J-2104D01*
G01*
Y-96521D02*
G03*
X175349Y-96738I1086J1882D01*
G01*
X175349Y-96738D02*
G03*
X174029Y-97751I562J-2099D01*
G01*
X173886Y-96664D02*
G03*
X175421Y-97300I1534J1534D01*
G01*
X175425D02*
G03*
X173886Y-97937I0J-2176D01*
G01*
X183334Y-95964D02*
G03*
X185777Y-97976I3432J1677D01*
G01*
X184437Y-97617D02*
G03*
X182305Y-98426I-505J-1884D01*
G01*
X185777Y-97976D02*
G03*
X183139Y-98977I-625J-2331D01*
G01*
X182305Y-96174D02*
G03*
X184437Y-96983I1627J1075D01*
G01*
X183139Y-95623D02*
G03*
X185777Y-96623I2014J1330D01*
G01*
X185777Y-96623D02*
G03*
X183334Y-98636I989J-3689D01*
G01*
X182045Y-95855D02*
G03*
X185533Y-97300I3488J3488D01*
G01*
X182752Y-95148D02*
G03*
X187947Y-97300I5195J5195D01*
G01*
X185533D02*
G03*
X182045Y-98745I0J-4933D01*
G01*
X187947Y-97300D02*
G03*
X182752Y-99452I0J-7347D01*
G01*
X179155Y-98745D02*
G03*
X175667Y-97300I-3488J-3488D01*
G01*
X178448Y-99452D02*
G03*
X173253Y-97300I-5195J-5195D01*
G01*
X175667D02*
G03*
X179155Y-95855I0J4933D01*
G01*
X173253Y-97300D02*
G03*
X178448Y-95148I0J7347D01*
G01*
X189155Y-98745D02*
G03*
X185667Y-97300I-3488J-3488D01*
G01*
X188448Y-99452D02*
G03*
X183253Y-97300I-5195J-5195D01*
G01*
X185667D02*
G03*
X189155Y-95855I0J4933D01*
G01*
X183253Y-97300D02*
G03*
X188448Y-95148I0J7347D01*
G01*
X24300Y-30300D02*
X33400D01*
X114300Y-105200D02*
X124500D01*
X42300Y-33200D02*
X114300Y-105200D01*
X42300Y-33200D02*
Y-24200D01*
X113800Y-102100D02*
X124500D01*
X47200Y-35500D02*
X113800Y-102100D01*
X47200Y-35500D02*
Y-24200D01*
X119300Y-99000D02*
X124500D01*
X52100Y-31800D02*
X119300Y-99000D01*
X52100Y-31800D02*
Y-24200D01*
X118833Y-95900D02*
X124500D01*
X57100Y-34167D02*
Y-24200D01*
Y-34167D02*
X118833Y-95900D01*
X135600Y-166400D02*
X137700Y-168500D01*
X140400Y-161300D02*
X158200Y-179100D01*
X140400Y-161300D02*
Y-139700D01*
X149200Y-101200D02*
Y-64300D01*
X143400Y-58500D02*
X149200Y-64300D01*
X151300Y-99900D02*
Y-62300D01*
X147500Y-58500D02*
X151300Y-62300D01*
X129000Y-105900D02*
Y-79700D01*
X107800Y-58500D02*
X129000Y-79700D01*
X126981Y-107319D02*
Y-81781D01*
X103700Y-58500D02*
X126981Y-81781D01*
X129000Y-105900D02*
X130400Y-107300D01*
X151300Y-99900D02*
X152600Y-101200D01*
X138000Y-164000D02*
X142500Y-168500D01*
X138000Y-164000D02*
Y-137500D01*
X28800Y-136200D02*
X79300D01*
X18100Y-125500D02*
X28800Y-136200D01*
X15000Y-125500D02*
X18100D01*
X79300Y-136200D02*
X83600Y-140500D01*
X88000D01*
X157500Y-113400D02*
X160100D01*
X148400Y-122500D02*
X157500Y-113400D01*
X87600Y-122500D02*
X148400D01*
X102500Y-114700D02*
X106300Y-118500D01*
X79800Y-114700D02*
X87600Y-122500D01*
X95600Y-114700D02*
X101400Y-120500D01*
X113300Y-114700D02*
X115100Y-116500D01*
X155800Y-104400D02*
Y-92200D01*
X143700Y-116500D02*
X155800Y-104400D01*
X115100Y-116500D02*
X143700D01*
X158200Y-105600D02*
Y-94600D01*
X145300Y-118500D02*
X158200Y-105600D01*
X106300Y-118500D02*
X145300D01*
X146900Y-120500D02*
X156427Y-110973D01*
X101400Y-120500D02*
X146900D01*
X135600Y-166400D02*
Y-135000D01*
X80500Y-134000D02*
X83000Y-136500D01*
X29800Y-134000D02*
X80500D01*
X15000Y-119200D02*
X29800Y-134000D01*
X10000Y-125500D02*
X15000D01*
X10000Y-119201D02*
X14999D01*
X116700Y-113600D02*
X124700D01*
X33400Y-30300D02*
X116700Y-113600D01*
D14*
X151406Y-44128D02*
X168100Y-60822D01*
Y-99100D02*
Y-60822D01*
X145057Y-153100D02*
X172900Y-125258D01*
Y-103900D01*
X168100Y-99100D02*
X172900Y-103900D01*
D16*
X102960Y-156500D02*
G03*
X104367Y-155917I0J1990D01*
G01*
X105633D02*
G03*
X107040Y-156500I1407J1407D01*
G01*
X145057Y-151147D02*
G03*
X148391Y-149767I0J4714D01*
G01*
X148391Y-149766D02*
G03*
X147010Y-153100I3334J-3334D01*
G01*
X112296Y-41978D02*
G03*
X114957Y-40876I0J3764D01*
G01*
X116383Y-39450D02*
G03*
X114446Y-44128I4678J-4678D01*
G01*
X93111Y-152052D02*
G03*
X96780Y-153572I3670J3670D01*
G01*
D02*
G03*
X93111Y-155092I0J-5190D01*
G01*
Y-163863D02*
G03*
X96780Y-165383I3670J3670D01*
G01*
D02*
G03*
X93111Y-166903I0J-5190D01*
G01*
X116789Y-155092D02*
G03*
X113120Y-153572I-3670J-3670D01*
G01*
D02*
G03*
X116789Y-152052I0J5190D01*
G01*
Y-166903D02*
G03*
X113120Y-165383I-3670J-3670D01*
G01*
D02*
G03*
X116789Y-163863I0J5190D01*
G01*
X154146Y-44128D02*
G03*
X156083Y-48805I6615J0D01*
G01*
X154657Y-47380D02*
G03*
X151996Y-46277I-2661J-2661D01*
G01*
X148665Y-44128D02*
G03*
X146728Y-39450I-6615J0D01*
G01*
X148153Y-40876D02*
G03*
X150815Y-41978I2661J2661D01*
G01*
X101500Y-156500D02*
X108500D01*
X101500Y-162500D02*
X108500D01*
X111383Y-165383D02*
X118900D01*
X108500Y-162500D02*
X111383Y-165383D01*
X98617D02*
X101500Y-162500D01*
X91000Y-165383D02*
X98617D01*
X111428Y-153572D02*
X118900D01*
X108500Y-156500D02*
X111428Y-153572D01*
X98572D02*
X101500Y-156500D01*
X91000Y-153572D02*
X98572D01*
X145578Y-38300D02*
X151406Y-44128D01*
X117533Y-38300D02*
X145578D01*
X111706Y-44128D02*
X117533Y-38300D01*
D27*
X172900Y-97301D02*
D03*
Y-103600D02*
D03*
X10000Y-119201D02*
D03*
Y-125500D02*
D03*
X105000Y-162499D02*
D03*
Y-156200D02*
D03*
D47*
X-15748Y173228D02*
D03*
X421260D02*
D03*
X-15748Y-161417D02*
D03*
X421260D02*
D03*
D49*
X172900Y-97301D02*
X172901Y-97300D01*
X180600D01*
X190600D01*
D52*
X52000Y-125550D02*
D03*
D57*
X151406Y-44128D02*
D03*
Y-32316D02*
D03*
X139594D02*
D03*
Y-44128D02*
D03*
X118900Y-165383D02*
D03*
Y-153572D02*
D03*
X91000Y-165383D02*
D03*
Y-153572D02*
D03*
X111706Y-44128D02*
D03*
Y-32316D02*
D03*
X99894D02*
D03*
Y-44128D02*
D03*
D58*
X145500Y-14600D02*
D03*
X118900Y-183100D02*
D03*
X91000D02*
D03*
X105800Y-14600D02*
D03*
D59*
X40500Y-148000D02*
D03*
X40500Y-125559D02*
D03*
X63500Y-148000D02*
D03*
X63500Y-125559D02*
D03*
D60*
X6000Y-32500D02*
D03*
Y-42500D02*
D03*
Y-52500D02*
D03*
X190600Y-107300D02*
D03*
Y-97300D02*
D03*
Y-87300D02*
D03*
X180600Y-107300D02*
D03*
Y-97300D02*
D03*
Y-87300D02*
D03*
D61*
X182850Y-182850D02*
D03*
X14000Y-182850D02*
D03*
X182850Y-14000D02*
D03*
X14000Y-14000D02*
D03*
D62*
X164743Y-153100D02*
D03*
X145057D02*
D03*
D63*
X-19685Y200787D02*
D03*
Y-188976D02*
D03*
X425197D02*
D03*
Y200787D02*
D03*
D64*
X56700Y-40600D02*
D03*
X51000Y-34800D02*
D03*
X85300Y-69200D02*
D03*
X90000Y-74100D02*
D03*
X97700Y-81700D02*
D03*
X76400Y-60500D02*
D03*
X113300Y-87000D02*
D03*
X113200Y-97700D02*
D03*
X51300Y-98600D02*
D03*
X65300Y-104300D02*
D03*
X113000Y-59500D02*
D03*
X106000Y-65600D02*
D03*
X114800Y-80800D02*
D03*
X162500Y-33000D02*
D03*
Y-25500D02*
D03*
X132000Y-41800D02*
D03*
X120000D02*
D03*
X126000D02*
D03*
X121400Y-32800D02*
D03*
Y-26800D02*
D03*
X129900D02*
D03*
Y-32800D02*
D03*
X88000Y-32500D02*
D03*
Y-26500D02*
D03*
X61500Y-7500D02*
D03*
X48500D02*
D03*
X55000D02*
D03*
X67500D02*
D03*
X42500D02*
D03*
X100000Y-53000D02*
D03*
Y-59500D02*
D03*
X93000Y-65500D02*
D03*
Y-59500D02*
D03*
X86000D02*
D03*
X109000Y-74000D02*
D03*
X102500Y-75000D02*
D03*
Y-70000D02*
D03*
X97500D02*
D03*
X119000Y-65000D02*
D03*
X25000Y-25500D02*
D03*
X37500Y-20500D02*
D03*
X30000Y-17500D02*
D03*
X79500Y-26500D02*
D03*
Y-32500D02*
D03*
X66500Y-26500D02*
D03*
X71000Y-32500D02*
D03*
X62500D02*
D03*
X178500Y-122000D02*
D03*
X168500Y-116500D02*
D03*
X110000Y-188000D02*
D03*
Y-180000D02*
D03*
X100000D02*
D03*
Y-188000D02*
D03*
X30000D02*
D03*
Y-180000D02*
D03*
X40000D02*
D03*
Y-188000D02*
D03*
X50000D02*
D03*
Y-180000D02*
D03*
X60000D02*
D03*
Y-188000D02*
D03*
X70000D02*
D03*
Y-180000D02*
D03*
X80000D02*
D03*
Y-188000D02*
D03*
X130000D02*
D03*
Y-180000D02*
D03*
Y-162500D02*
D03*
Y-172000D02*
D03*
X120000D02*
D03*
X90000D02*
D03*
X130000Y-145000D02*
D03*
X120000Y-139000D02*
D03*
Y-145000D02*
D03*
X73500Y-147500D02*
D03*
X30000Y-102500D02*
D03*
X25000D02*
D03*
X30000Y-107500D02*
D03*
X42500Y-115000D02*
D03*
X52500D02*
D03*
X62500D02*
D03*
X72500D02*
D03*
X163000Y-62500D02*
D03*
X60500Y-74000D02*
D03*
X69500D02*
D03*
X42000Y-43500D02*
D03*
X36000D02*
D03*
X170500Y-142500D02*
D03*
X170000Y-152500D02*
D03*
X162500Y-145000D02*
D03*
Y-182500D02*
D03*
X170000Y-160000D02*
D03*
X162500Y-167500D02*
D03*
X155000D02*
D03*
X162500Y-160000D02*
D03*
X73500Y-139000D02*
D03*
X31000D02*
D03*
X52000D02*
D03*
X178000Y-33000D02*
D03*
X170500Y-25500D02*
D03*
Y-33000D02*
D03*
X163500Y-40000D02*
D03*
X159500Y-46000D02*
D03*
X5000Y-120000D02*
D03*
Y-125000D02*
D03*
X65000Y-74000D02*
D03*
X56000D02*
D03*
X28000Y-95000D02*
D03*
Y-62000D02*
D03*
X39000Y-56000D02*
D03*
X39012Y-47571D02*
D03*
X36000Y-51000D02*
D03*
X42000D02*
D03*
X28000Y-86000D02*
D03*
X44000Y-78000D02*
D03*
X36000D02*
D03*
X28000D02*
D03*
X44000Y-70000D02*
D03*
X36000D02*
D03*
X28000D02*
D03*
X115000Y-75000D02*
D03*
X154000Y-59500D02*
D03*
X170500Y-40000D02*
D03*
X156500D02*
D03*
X142500Y-64000D02*
D03*
X145000Y-68000D02*
D03*
X140000D02*
D03*
X126000Y-46000D02*
D03*
X120000D02*
D03*
X132000D02*
D03*
X72500Y-122500D02*
D03*
Y-130000D02*
D03*
X90000Y-125500D02*
D03*
X99000Y-114000D02*
D03*
X96500Y-119500D02*
D03*
X91000Y-114000D02*
D03*
X92500Y-105000D02*
D03*
X88000Y-107500D02*
D03*
X82500D02*
D03*
X77000D02*
D03*
X71500D02*
D03*
X96500Y-139000D02*
D03*
Y-125500D02*
D03*
X87500Y-135000D02*
D03*
X82500Y-130000D02*
D03*
X87500D02*
D03*
X92500Y-135000D02*
D03*
X77500Y-130000D02*
D03*
X92500D02*
D03*
X112500Y-126000D02*
D03*
Y-139000D02*
D03*
X107500D02*
D03*
X102500D02*
D03*
X115000Y-130000D02*
D03*
Y-135000D02*
D03*
X110000D02*
D03*
Y-130000D02*
D03*
X105000D02*
D03*
Y-135000D02*
D03*
X100000D02*
D03*
Y-130000D02*
D03*
X177500Y-67500D02*
D03*
Y-77500D02*
D03*
X172500Y-72500D02*
D03*
X163000Y-77500D02*
D03*
Y-72500D02*
D03*
Y-67500D02*
D03*
X154000Y-64500D02*
D03*
Y-69000D02*
D03*
X189000Y-55000D02*
D03*
Y-45000D02*
D03*
X193000Y-60000D02*
D03*
Y-50000D02*
D03*
Y-40000D02*
D03*
X185000Y-60000D02*
D03*
Y-50000D02*
D03*
Y-40000D02*
D03*
X177500Y-72500D02*
D03*
Y-62500D02*
D03*
X172500Y-67500D02*
D03*
X185000Y-75000D02*
D03*
X192500D02*
D03*
X129000Y-113500D02*
D03*
X124700Y-113600D02*
D03*
X119000Y-127000D02*
D03*
X123500D02*
D03*
X128000D02*
D03*
X160000Y-124000D02*
D03*
X163500Y-116500D02*
D03*
X160000Y-108000D02*
D03*
X155000Y-87000D02*
D03*
X145000Y-111000D02*
D03*
X150000Y-106000D02*
D03*
X155000Y-81000D02*
D03*
X133000D02*
D03*
X139000D02*
D03*
X145000D02*
D03*
Y-87000D02*
D03*
Y-93000D02*
D03*
Y-105000D02*
D03*
X139000Y-111000D02*
D03*
X133000Y-99000D02*
D03*
X139000D02*
D03*
X145000D02*
D03*
X133000Y-87000D02*
D03*
X139000D02*
D03*
Y-93000D02*
D03*
X133000D02*
D03*
Y-105000D02*
D03*
X139000D02*
D03*
X133000Y-111000D02*
D03*
X155000Y-135000D02*
D03*
X147500D02*
D03*
Y-142500D02*
D03*
X155000Y-152500D02*
D03*
X147500Y-160000D02*
D03*
X177500D02*
D03*
X155000D02*
D03*
X190000Y-135000D02*
D03*
Y-145000D02*
D03*
Y-155000D02*
D03*
X185000D02*
D03*
Y-145000D02*
D03*
Y-135000D02*
D03*
X81700Y-84600D02*
D03*
X79500D02*
D03*
X81700Y-82500D02*
D03*
X79500D02*
D03*
X164500Y-185900D02*
D03*
X133100Y-192200D02*
D03*
X94800Y-108200D02*
D03*
X127000Y-64200D02*
D03*
X87600Y-92200D02*
D03*
X77400Y-20800D02*
D03*
X175500Y-82300D02*
D03*
X172700Y-42500D02*
D03*
X171300Y-64200D02*
D03*
Y-45300D02*
D03*
X110100Y-81900D02*
D03*
X94800Y-100300D02*
D03*
X105500Y-125500D02*
D03*
X83000D02*
D03*
X120300Y-132900D02*
D03*
X159500Y-131900D02*
D03*
X138000Y-137500D02*
D03*
X130400Y-107300D02*
D03*
X149200Y-101200D02*
D03*
X152600D02*
D03*
X143400Y-58500D02*
D03*
X147500D02*
D03*
X107800Y-58500D02*
D03*
X103700D02*
D03*
X126981Y-107319D02*
D03*
X155800Y-92200D02*
D03*
X158200Y-94600D02*
D03*
X113300Y-114700D02*
D03*
X102500D02*
D03*
X79800D02*
D03*
X160100Y-113400D02*
D03*
X156427Y-110973D02*
D03*
X95600Y-114700D02*
D03*
X124500Y-105200D02*
D03*
Y-102100D02*
D03*
Y-99000D02*
D03*
Y-95900D02*
D03*
X57100Y-24200D02*
D03*
X52100D02*
D03*
X47200D02*
D03*
X42300D02*
D03*
X158200Y-179100D02*
D03*
X140400Y-139700D02*
D03*
X135600Y-135000D02*
D03*
X142500Y-168500D02*
D03*
X137700D02*
D03*
X16000Y-112000D02*
D03*
X20000Y-116000D02*
D03*
X80000Y-172000D02*
D03*
Y-164000D02*
D03*
Y-156000D02*
D03*
X70000D02*
D03*
Y-164000D02*
D03*
Y-172000D02*
D03*
X60000D02*
D03*
Y-164000D02*
D03*
Y-156000D02*
D03*
X20000Y-164000D02*
D03*
X50000D02*
D03*
Y-172000D02*
D03*
X40000D02*
D03*
Y-164000D02*
D03*
X50000Y-156000D02*
D03*
X40000D02*
D03*
X30000Y-172000D02*
D03*
Y-164000D02*
D03*
X63000Y-139000D02*
D03*
X40500D02*
D03*
X12000Y-138000D02*
D03*
X6000D02*
D03*
Y-146000D02*
D03*
X12000D02*
D03*
Y-154000D02*
D03*
X6000D02*
D03*
X83000Y-136500D02*
D03*
X88000Y-140500D02*
D03*
X15000Y-125500D02*
D03*
Y-119200D02*
D03*
X9500Y-100000D02*
D03*
Y-94000D02*
D03*
Y-86500D02*
D03*
Y-80500D02*
D03*
Y-73000D02*
D03*
Y-67000D02*
D03*
X35000Y-24200D02*
D03*
X24300Y-30300D02*
D03*
X90000Y-92200D02*
D03*
X88800Y-90200D02*
D03*
D69*
X80550Y-83600D02*
D03*
M02*
