编号	快递单号	发件人地址	收件人地址
1	761753694621	北京	上海
2	761753694622	北京	内蒙古
3	761753694623	北京	上海
4	761753694624	河南	内蒙古
5	761753694625	广东	上海
6	761753694626	北京	四川
7	761753694627	河南	新疆
8	761753694628	广东	内蒙古
9	761753694629	江苏	上海
10	761753694630	天津	四川
11	761753694631	湖北	新疆
12	761753694632	陕西	内蒙古
13	761753694633	四川	上海
14	761753694634	新疆	四川
15	761753694635	内蒙古	新疆
16	761753694636	上海	内蒙古
17	761753694637	广东	上海
18	761753694638	江苏	四川
19	761753694639	天津	新疆
20	761753694640	湖北	内蒙古
21	761753694641	陕西	上海
22	761753694642	四川	天津
23	761753694643	新疆	湖北
24	761753694644	北京	四川
25	761753694645	河南	新疆
26	761753694646	广东	内蒙古
27	761753694647	江苏	上海
28	761753694648	天津	四川
29	3100710264359	河南	北京
30	761753694649	河南	北京





